3_C.csv

Record Length,1024,Points,0.0,-9.348501205,
Sample Interval,246.60669267E-3,Hz,246.60669267E-3,-6.94850111,
Trigger Point,0.0,Samples,493.213385344E-3,-13.3485012,
,,,739.820063114E-3,-74.948501587,
,,,986.426770687E-3,-72.548500061,
,,,1.2330334,-74.948501587,
Source,MATH,,1.4796401,-74.948501587,
Vertical Units,dB,,1.7262468,-74.948501587,
Vertical Scale,10.0000001,,1.9728535,-72.548500061,
Vertical Offset,-34.9485,,2.2194602,-72.548500061,
Horizontal Units,Hz,,2.4660668,-74.948501587,
Horizontal Scale,25.25252533,,2.7126737,-74.948501587,
Pt Fmt,Y,,2.95928025,-74.948501587,
Yzero,0.0,,3.20588708,-68.548500061,
,,,3.45249367,-72.548500061,
,,,3.69910049,-74.948501587,
Note,TDS 2012C - 9:40:06 PM   3/29/2026,,3.94570708,-74.948501587,
,,,4.19231367,-74.948501587,
,,,4.43892050,-74.948501587,
,,,4.68552732,-68.548500061,
,,,4.93213367,-65.748504639,
,,,5.17874050,-63.348503113,
,,,5.42534733,-62.948501587,
,,,5.67195415,-69.348503113,
,,,5.91856050,-74.948501587,
,,,6.16516733,-74.948501587,
,,,6.41177416,-74.948501587,
,,,6.65838051,-69.348503113,
,,,6.90498734,-69.348503113,
,,,7.15159416,-65.348503113,
,,,7.398200989,-65.348503113,
,,,7.644807339,-72.548500061,
,,,7.891414165,-74.948501587,
,,,8.138020515,-74.948501587,
,,,8.384627342,-74.948501587,
,,,8.631234169,-72.548500061,
,,,8.877840996,-74.948501587,
,,,9.124447823,-62.948501587,
,,,9.371054649,-47.74850082,
,,,9.617661476,-32.54850006,
,,,9.864267349,-29.74850082,
,,,10.1108742,-29.74850082,
,,,10.3574810,-32.14850235,
,,,10.6040878,-45.34850311,
,,,10.8506947,-60.948501587,
,,,11.0973015,-74.948501587,
,,,11.3439083,-72.548500061,
,,,11.5905142,-74.948501587,
,,,11.8371210,-72.548500061,
,,,12.0837278,-72.548500061,
,,,12.3303347,-74.948501587,
,,,12.5769415,-74.948501587,
,,,12.8235483,-74.948501587,
,,,13.0701551,-72.548500061,
,,,13.3167610,-72.548500061,
,,,13.5633678,-74.948501587,
,,,13.8099747,-74.948501587,
,,,14.0565815,-72.548500061,
,,,14.3031883,-72.548500061,
,,,14.5497952,-72.548500061,
,,,14.7964020,-72.548500061,
,,,15.0430079,-74.948501587,
,,,15.2896147,-74.948501587,
,,,15.5362215,-74.948501587,
,,,15.7828283,-72.548500061,
,,,16.0294342,-74.948501587,
,,,16.2760410,-74.948501587,
,,,16.5226479,-74.948501587,
,,,16.7692547,-74.948501587,
,,,17.0158615,-69.348503113,
,,,17.2624683,-69.348503113,
,,,17.5090752,-69.348503113,
,,,17.7556820,-74.948501587,
,,,18.0022888,-74.948501587,
,,,18.2488956,-74.948501587,
,,,18.4955025,-74.948501587,
,,,18.7421093,-74.948501587,
,,,18.9887161,-74.948501587,
,,,19.2353230,-72.548500061,
,,,19.4819279,-68.548500061,
,,,19.7285347,-62.548503876,
,,,19.9751415,-64.148498535,
,,,20.22174835,-64.148498535,
,,,20.46835518,-68.548500061,
,,,20.71496201,-74.948501587,
,,,20.96156883,-74.948501587,
,,,21.20817566,-74.948501587,
,,,21.45478249,-74.948501587,
,,,21.70138931,-74.948501587,
,,,21.94799614,-74.948501587,
,,,22.19460297,-74.948501587,
,,,22.44120979,-72.548500061,
,,,22.68781662,-74.948501587,
,,,22.93442154,-74.948501587,
,,,23.18102837,-74.948501587,
,,,23.42763519,-74.948501587,
,,,23.67424202,-74.948501587,
,,,23.92084885,-74.948501587,
,,,24.16745567,-74.948501587,
,,,24.41406250,-74.948501587,
,,,24.66066933,-74.948501587,
,,,24.90727615,-74.948501587,
,,,25.15388298,-69.348503113,
,,,25.40048981,-74.948501587,
,,,25.64709663,-74.948501587,
,,,25.89370346,-74.948501587,
,,,26.14031029,-74.948501587,
,,,26.38691521,-74.948501587,
,,,26.63352203,-74.948501587,
,,,26.88012886,-74.948501587,
,,,27.12673569,-74.948501587,
,,,27.37334251,-74.948501587,
,,,27.61994934,-74.948501587,
,,,27.86655617,-74.948501587,
,,,28.11316299,-74.948501587,
,,,28.35976982,-74.948501587,
,,,28.60637665,-74.948501587,
,,,28.85298347,-72.548500061,
,,,29.09959030,-74.948501587,
,,,29.34619713,-74.948501587,
,,,29.59280396,-74.948501587,
,,,29.83940887,-72.548500061,
,,,30.08601570,-74.948501587,
,,,30.33262253,-72.548500061,
,,,30.57922935,-72.548500061,
,,,30.82583618,-72.548500061,
,,,31.07244301,-74.948501587,
,,,31.31904984,-74.948501587,
,,,31.56565666,-72.548500061,
,,,31.81226349,-74.948501587,
,,,32.05886841,-72.548500061,
,,,32.30547714,-74.948501587,
,,,32.55208206,-74.948501587,
,,,32.79869080,-74.948501587,
,,,33.04529572,-74.948501587,
,,,33.29190445,-74.948501587,
,,,33.53850937,-74.948501587,
,,,33.78511810,-74.948501587,
,,,34.03172302,-72.548500061,
,,,34.27833176,-74.948501587,
,,,34.52493668,-68.548500061,
,,,34.77154541,-72.548500061,
,,,35.01815033,-72.548500061,
,,,35.26475525,-72.548500061,
,,,35.51136398,-74.948501587,
,,,35.75796890,-74.948501587,
,,,36.00457764,-74.948501587,
,,,36.25118256,-74.948501587,
,,,36.49779129,-72.548500061,
,,,36.74439621,-74.948501587,
,,,36.99100494,-74.948501587,
,,,37.23760986,-74.948501587,
,,,37.48421860,-69.348503113,
,,,37.73082352,-74.948501587,
,,,37.97743225,-74.948501587,
,,,38.22403717,-72.548500061,
,,,38.47064590,-74.948501587,
,,,38.71725082,-74.948501587,
,,,38.96385574,-74.948501587,
,,,39.21046448,-74.948501587,
,,,39.45706940,-69.348503113,
,,,39.70367813,-68.548500061,
,,,39.95028305,-68.548500061,
,,,40.19689178,-68.548500061,
,,,40.44349670,-72.548500061,
,,,40.69010544,-74.948501587,
,,,40.93671036,-72.548500061,
,,,41.18331909,-72.548500061,
,,,41.42992401,-74.948501587,
,,,41.67653275,-74.948501587,
,,,41.92313766,-74.948501587,
,,,42.16974258,-74.948501587,
,,,42.41635132,-74.948501587,
,,,42.66295624,-72.548500061,
,,,42.90956497,-68.548500061,
,,,43.15616989,-72.548500061,
,,,43.40277863,-74.948501587,
,,,43.64938354,-74.948501587,
,,,43.89599228,-74.948501587,
,,,44.14259720,-74.948501587,
,,,44.38920593,-74.948501587,
,,,44.63581085,-72.548500061,
,,,44.88241959,-74.948501587,
,,,45.12902451,-74.948501587,
,,,45.37563324,-74.948501587,
,,,45.62223816,-74.948501587,
,,,45.86884308,-74.948501587,
,,,46.11545181,-74.948501587,
,,,46.36205673,-74.948501587,
,,,46.60866547,-74.948501587,
,,,46.85527039,-72.548500061,
,,,47.10187912,-68.548500061,
,,,47.34848404,-72.548500061,
,,,47.59509277,-72.548500061,
,,,47.84169769,-72.548500061,
,,,48.08830643,-74.948501587,
,,,48.33491135,-74.948501587,
,,,48.58152008,-72.548500061,
,,,48.82812500,-72.548500061,
,,,49.07473373,-68.548500061,
,,,49.32133865,-68.548500061,
,,,49.56794357,-69.348503113,
,,,49.81455231,-69.348503113,
,,,50.06115723,-74.948501587,
,,,50.30776596,-74.948501587,
,,,50.55437088,-74.948501587,
,,,50.80097961,-74.948501587,
,,,51.04758453,-74.948501587,
,,,51.29419327,-72.548500061,
,,,51.54079819,-72.548500061,
,,,51.78740692,-74.948501587,
,,,52.03401184,-74.948501587,
,,,52.28062057,-74.948501587,
,,,52.52722549,-74.948501587,
,,,52.77383041,-74.948501587,
,,,53.02043915,-74.948501587,
,,,53.26704407,-72.548500061,
,,,53.51365280,-72.548500061,
,,,53.76025772,-72.548500061,
,,,54.00686646,-74.948501587,
,,,54.25347137,-74.948501587,
,,,54.50008011,-74.948501587,
,,,54.746685028,-74.948501587,
,,,54.993293762,-74.948501587,
,,,55.239898682,-74.948501587,
,,,55.486507416,-74.948501587,
,,,55.733112335,-74.948501587,
,,,55.979721069,-74.948501587,
,,,56.226325989,-74.948501587,
,,,56.472930908,-74.948501587,
,,,56.719539642,-74.948501587,
,,,56.966144562,-74.948501587,
,,,57.212753296,-74.948501587,
,,,57.459358215,-74.948501587,
,,,57.705966949,-74.948501587,
,,,57.952571869,-69.348503113,
,,,58.199180603,-72.548500061,
,,,58.445785522,-74.948501587,
,,,58.692394257,-74.948501587,
,,,58.938999176,-74.948501587,
,,,59.185607910,-74.948501587,
,,,59.432212830,-74.948501587,
,,,59.678817749,-74.948501587,
,,,59.925426483,-74.948501587,
,,,60.172031403,-74.948501587,
,,,60.418640137,-74.948501587,
,,,60.665245056,-74.948501587,
,,,60.911853790,-74.948501587,
,,,61.158458710,-74.948501587,
,,,61.405067444,-72.548500061,
,,,61.651672363,-68.548500061,
,,,61.898281097,-68.548500061,
,,,62.144886017,-72.548500061,
,,,62.391494751,-74.948501587,
,,,62.638099670,-74.948501587,
,,,62.884708405,-74.948501587,
,,,63.131313324,-74.948501587,
,,,63.377918243,-74.948501587,
,,,63.624526978,-74.948501587,
,,,63.871131897,-74.948501587,
,,,64.117736816,-74.948501587,
,,,64.364349365,-72.548500061,
,,,64.610954285,-72.548500061,
,,,64.857559204,-74.948501587,
,,,65.104164124,-74.948501587,
,,,65.350776672,-74.948501587,
,,,65.597381592,-74.948501587,
,,,65.843986511,-74.948501587,
,,,66.090591431,-74.948501587,
,,,66.337203979,-74.948501587,
,,,66.583808899,-74.948501587,
,,,66.830413818,-72.548500061,
,,,67.077018738,-66.548500061,
,,,67.323623657,-68.548500061,
,,,67.570236206,-68.548500061,
,,,67.816841125,-69.348503113,
,,,68.063446045,-72.548500061,
,,,68.310050964,-74.948501587,
,,,68.556663513,-74.948501587,
,,,68.803268433,-72.548500061,
,,,69.049873352,-68.548500061,
,,,69.296478271,-74.948501587,
,,,69.543090820,-74.948501587,
,,,69.789695740,-74.948501587,
,,,70.036300659,-74.948501587,
,,,70.282905579,-74.948501587,
,,,70.529510498,-74.948501587,
,,,70.776123047,-72.548500061,
,,,71.022727966,-68.548500061,
,,,71.269332886,-69.348503113,
,,,71.515937805,-69.348503113,
,,,71.762550354,-74.948501587,
,,,72.009155273,-74.948501587,
,,,72.255760193,-74.948501587,
,,,72.502365112,-72.548500061,
,,,72.748977661,-74.948501587,
,,,72.995582581,-74.948501587,
,,,73.242187500,-74.948501587,
,,,73.488792419,-74.948501587,
,,,73.735397339,-74.948501587,
,,,73.982009888,-74.948501587,
,,,74.228614807,-74.948501587,
,,,74.475219727,-72.548500061,
,,,74.721824646,-68.548500061,
,,,74.968437195,-68.548500061,
,,,75.215042114,-72.548500061,
,,,75.461647034,-69.348503113,
,,,75.708251953,-74.948501587,
,,,75.954864502,-74.948501587,
,,,76.201469421,-72.548500061,
,,,76.448074341,-72.548500061,
,,,76.694679260,-74.948501587,
,,,76.941291809,-74.948501587,
,,,77.187896729,-74.948501587,
,,,77.434501648,-74.948501587,
,,,77.681106567,-74.948501587,
,,,77.927711487,-72.548500061,
,,,78.174324036,-74.948501587,
,,,78.420928955,-74.948501587,
,,,78.667533875,-74.948501587,
,,,78.914138794,-72.548500061,
,,,79.160751343,-72.548500061,
,,,79.407356262,-72.548500061,
,,,79.653961182,-74.948501587,
,,,79.900566101,-74.948501587,
,,,80.147178650,-74.948501587,
,,,80.393783569,-72.548500061,
,,,80.640388489,-72.548500061,
,,,80.886993408,-72.548500061,
,,,81.133598328,-72.548500061,
,,,81.380210876,-72.548500061,
,,,81.626815796,-74.948501587,
,,,81.873420715,-74.948501587,
,,,82.120025635,-74.948501587,
,,,82.366638184,-74.948501587,
,,,82.613243103,-72.548500061,
,,,82.859848022,-74.948501587,
,,,83.106452942,-74.948501587,
,,,83.353065491,-72.548500061,
,,,83.599670410,-72.548500061,
,,,83.846275330,-72.548500061,
,,,84.092880249,-74.948501587,
,,,84.339485168,-74.948501587,
,,,84.586097717,-68.548500061,
,,,84.832702637,-62.948501587,
,,,85.079307556,-61.348503113,
,,,85.325912476,-62.948501587,
,,,85.572525024,-68.548500061,
,,,85.819129944,-72.548500061,
,,,86.065734863,-74.948501587,
,,,86.312339783,-74.948501587,
,,,86.558952332,-74.948501587,
,,,86.805557251,-74.948501587,
,,,87.052162170,-74.948501587,
,,,87.298767090,-74.948501587,
,,,87.545379639,-74.948501587,
,,,87.791984558,-74.948501587,
,,,88.038589478,-74.948501587,
,,,88.285194397,-72.548500061,
,,,88.531799316,-68.548500061,
,,,88.778411865,-72.548500061,
,,,89.025016785,-72.548500061,
,,,89.271621704,-74.948501587,
,,,89.518226624,-74.948501587,
,,,89.764839172,-74.948501587,
,,,90.011444092,-74.948501587,
,,,90.258049011,-74.948501587,
,,,90.504653931,-74.948501587,
,,,90.751266479,-74.948501587,
,,,90.997871399,-74.948501587,
,,,91.244476318,-68.548500061,
,,,91.491081238,-72.548500061,
,,,91.737686157,-72.548500061,
,,,91.984298706,-74.948501587,
,,,92.230903625,-74.948501587,
,,,92.477508545,-74.948501587,
,,,92.724113464,-74.948501587,
,,,92.970726013,-74.948501587,
,,,93.217330933,-74.948501587,
,,,93.463935852,-74.948501587,
,,,93.710540771,-74.948501587,
,,,93.957153320,-74.948501587,
,,,94.203758240,-74.948501587,
,,,94.450363159,-54.948501587,
,,,94.696968079,-45.34850311,
,,,94.943572998,-44.14850235,
,,,95.190185547,-44.14850235,
,,,95.436790466,-48.14850235,
,,,95.683395386,-68.548500061,
,,,95.930000305,-74.948501587,
,,,96.176612854,-74.948501587,
,,,96.423217773,-74.948501587,
,,,96.669822693,-68.548500061,
,,,96.916427612,-72.548500061,
,,,97.163040161,-69.348503113,
,,,97.409645081,-72.548500061,
,,,97.656250000,-72.548500061,
,,,97.902854919,-69.348503113,
,,,98.149467468,-68.548500061,
,,,98.396072388,-72.548500061,
,,,98.642677307,-72.548500061,
,,,98.889282227,-74.948501587,
,,,99.135887146,-72.548500061,
,,,99.382499695,-74.948501587,
,,,99.629104614,-74.948501587,
,,,99.875709534,-74.948501587,
,,,100.1223145,-74.948501587,
,,,100.3689270,-74.948501587,
,,,100.6155319,-74.948501587,
,,,100.8621368,-69.348503113,
,,,101.1087418,-74.948501587,
,,,101.3553543,-69.348503113,
,,,101.6019592,-74.948501587,
,,,101.8485641,-74.948501587,
,,,102.0951691,-74.948501587,
,,,102.3417740,-74.948501587,
,,,102.5883865,-72.548500061,
,,,102.8349915,-74.948501587,
,,,103.0815964,-74.948501587,
,,,103.3282013,-72.548500061,
,,,103.5748138,-74.948501587,
,,,103.8214188,-69.348503113,
,,,104.0680237,-72.548500061,
,,,104.3146286,-68.548500061,
,,,104.5612411,-48.54850006,
,,,104.8078461,-43.74850082,
,,,105.0544510,-43.34850311,
,,,105.3010559,-44.14850235,
,,,105.5476608,-52.94850159,
,,,105.7942734,-74.948501587,
,,,106.0408783,-74.948501587,
,,,106.2874832,-74.948501587,
,,,106.5340881,-74.948501587,
,,,106.7807007,-74.948501587,
,,,107.0273056,-74.948501587,
,,,107.2739105,-74.948501587,
,,,107.5205154,-74.948501587,
,,,107.7671280,-74.948501587,
,,,108.0137329,-74.948501587,
,,,108.2603378,-74.948501587,
,,,108.5069427,-74.948501587,
,,,108.7535477,-74.948501587,
,,,109.0001602,-74.948501587,
,,,109.2467651,-72.548500061,
,,,109.4933701,-69.348503113,
,,,109.7399750,-69.348503113,
,,,109.9865875,-74.948501587,
,,,110.2331924,-74.948501587,
,,,110.4797974,-74.948501587,
,,,110.7264023,-74.948501587,
,,,110.9730148,-74.948501587,
,,,111.2196198,-74.948501587,
,,,111.4662247,-74.948501587,
,,,111.7128296,-74.948501587,
,,,111.9594421,-74.948501587,
,,,112.2060471,-69.348503113,
,,,112.4526520,-74.948501587,
,,,112.6992569,-74.948501587,
,,,112.9458618,-72.548500061,
,,,113.1924744,-74.948501587,
,,,113.4390793,-72.548500061,
,,,113.6856842,-74.948501587,
,,,113.9322891,-74.948501587,
,,,114.1789017,-74.948501587,
,,,114.4255066,-74.948501587,
,,,114.6721115,-66.548500061,
,,,114.9187164,-66.548500061,
,,,115.1653290,-64.148498535,
,,,115.4119339,-68.548500061,
,,,115.6585388,-74.948501587,
,,,115.9051437,-69.348503113,
,,,116.1517487,-72.548500061,
,,,116.3983612,-74.948501587,
,,,116.6449661,-74.948501587,
,,,116.8915710,-74.948501587,
,,,117.1381760,-72.548500061,
,,,117.3847885,-74.948501587,
,,,117.6313934,-74.948501587,
,,,117.8779984,-72.548500061,
,,,118.1246033,-68.548500061,
,,,118.3712158,-72.548500061,
,,,118.6178207,-74.948501587,
,,,118.8644257,-74.948501587,
,,,119.1110306,-74.948501587,
,,,119.3576355,-74.948501587,
,,,119.6042480,-72.548500061,
,,,119.8508530,-74.948501587,
,,,120.0974579,-74.948501587,
,,,120.3440628,-74.948501587,
,,,120.5906754,-74.948501587,
,,,120.8372803,-74.948501587,
,,,121.0838852,-74.948501587,
,,,121.3304901,-74.948501587,
,,,121.5771027,-74.948501587,
,,,121.8237076,-74.948501587,
,,,122.0703125,-74.948501587,
,,,122.3169174,-74.948501587,
,,,122.5635300,-72.548500061,
,,,122.8101349,-74.948501587,
,,,123.0567398,-74.948501587,
,,,123.3033447,-74.948501587,
,,,123.5499496,-74.948501587,
,,,123.7965622,-74.948501587,
,,,124.0431671,-72.548500061,
,,,124.2897720,-74.948501587,
,,,124.5363770,-74.948501587,
,,,124.7829895,-72.548500061,
,,,125.0295944,-74.948501587,
,,,125.2761993,-72.548500061,
,,,125.5228043,-74.948501587,
,,,125.7694168,-74.948501587,
,,,126.0160217,-74.948501587,
,,,126.2626266,-74.948501587,
,,,126.5092316,-74.948501587,
,,,126.7558365,-74.948501587,
,,,127.0024490,-74.948501587,
,,,127.2490540,-74.948501587,
,,,127.4956589,-74.948501587,
,,,127.7422638,-74.948501587,
,,,127.9888763,-72.548500061,
,,,128.2354736,-74.948501587,
,,,128.4820862,-74.948501587,
,,,128.7286987,-72.548500061,
,,,128.9752960,-74.948501587,
,,,129.2219086,-74.948501587,
,,,129.4685211,-74.948501587,
,,,129.7151184,-74.948501587,
,,,129.9617310,-74.948501587,
,,,130.2083282,-74.948501587,
,,,130.4549408,-74.948501587,
,,,130.7015533,-74.948501587,
,,,130.9481506,-74.948501587,
,,,131.1947632,-74.948501587,
,,,131.4413605,-72.548500061,
,,,131.6879730,-74.948501587,
,,,131.9345856,-74.948501587,
,,,132.1811829,-74.948501587,
,,,132.4277954,-74.948501587,
,,,132.6744080,-74.948501587,
,,,132.9210052,-74.948501587,
,,,133.1676178,-72.548500061,
,,,133.4142151,-69.348503113,
,,,133.6608276,-69.348503113,
,,,133.9074402,-74.948501587,
,,,134.1540375,-74.948501587,
,,,134.4006500,-74.948501587,
,,,134.6472473,-74.948501587,
,,,134.8938599,-74.948501587,
,,,135.1404724,-74.948501587,
,,,135.3870697,-74.948501587,
,,,135.6336823,-74.948501587,
,,,135.8802948,-72.548500061,
,,,136.1268921,-74.948501587,
,,,136.3735046,-74.948501587,
,,,136.6201019,-74.948501587,
,,,136.8667145,-69.348503113,
,,,137.1133270,-74.948501587,
,,,137.3599243,-74.948501587,
,,,137.6065369,-74.948501587,
,,,137.8531342,-74.948501587,
,,,138.0997467,-69.348503113,
,,,138.3463593,-74.948501587,
,,,138.5929565,-74.948501587,
,,,138.8395691,-74.948501587,
,,,139.0861816,-74.948501587,
,,,139.3327789,-72.548500061,
,,,139.5793915,-74.948501587,
,,,139.8259888,-74.948501587,
,,,140.0726013,-74.948501587,
,,,140.3192139,-74.948501587,
,,,140.5658112,-74.948501587,
,,,140.8124237,-74.948501587,
,,,141.0590210,-74.948501587,
,,,141.3056335,-72.548500061,
,,,141.5522461,-72.548500061,
,,,141.7988434,-72.548500061,
,,,142.0454559,-74.948501587,
,,,142.2920685,-74.948501587,
,,,142.5386658,-74.948501587,
,,,142.7852783,-72.548500061,
,,,143.0318756,-74.948501587,
,,,143.2784882,-74.948501587,
,,,143.5251007,-74.948501587,
,,,143.7716980,-74.948501587,
,,,144.0183105,-74.948501587,
,,,144.2649078,-74.948501587,
,,,144.5115204,-74.948501587,
,,,144.7581329,-74.948501587,
,,,145.0047302,-74.948501587,
,,,145.2513428,-74.948501587,
,,,145.4979553,-74.948501587,
,,,145.7445526,-74.948501587,
,,,145.9911652,-74.948501587,
,,,146.2377625,-74.948501587,
,,,146.4843750,-74.948501587,
,,,146.7309875,-74.948501587,
,,,146.9775848,-74.948501587,
,,,147.2241974,-74.948501587,
,,,147.4707947,-74.948501587,
,,,147.7174072,-74.948501587,
,,,147.9640198,-74.948501587,
,,,148.2106171,-72.548500061,
,,,148.45722961,-74.948501587,
,,,148.70384216,-74.948501587,
,,,148.95043945,-74.948501587,
,,,149.19705200,-74.948501587,
,,,149.44364929,-74.948501587,
,,,149.69026184,-74.948501587,
,,,149.93687439,-74.948501587,
,,,150.18347168,-72.548500061,
,,,150.43008423,-72.548500061,
,,,150.67669678,-74.948501587,
,,,150.92329407,-74.948501587,
,,,151.16990662,-74.948501587,
,,,151.41650391,-74.948501587,
,,,151.66311646,-72.548500061,
,,,151.90972900,-72.548500061,
,,,152.15632629,-74.948501587,
,,,152.40293884,-74.948501587,
,,,152.64953613,-74.948501587,
,,,152.89614868,-74.948501587,
,,,153.14276123,-74.948501587,
,,,153.38935852,-74.948501587,
,,,153.63597107,-72.548500061,
,,,153.88258362,-72.548500061,
,,,154.12918091,-74.948501587,
,,,154.37579346,-74.948501587,
,,,154.62239075,-74.948501587,
,,,154.86900330,-72.548500061,
,,,155.11561584,-74.948501587,
,,,155.36221313,-74.948501587,
,,,155.60882568,-74.948501587,
,,,155.85542297,-74.948501587,
,,,156.10203552,-74.948501587,
,,,156.34864807,-74.948501587,
,,,156.59524536,-74.948501587,
,,,156.84185791,-74.948501587,
,,,157.08847046,-74.948501587,
,,,157.33506775,-74.948501587,
,,,157.58168030,-74.948501587,
,,,157.82827759,-74.948501587,
,,,158.07489014,-72.548500061,
,,,158.32150269,-74.948501587,
,,,158.56809998,-74.948501587,
,,,158.81471252,-69.348503113,
,,,159.06130981,-69.348503113,
,,,159.30792236,-72.548500061,
,,,159.55453491,-74.948501587,
,,,159.80113220,-74.948501587,
,,,160.04774475,-74.948501587,
,,,160.29435730,-74.948501587,
,,,160.54095459,-72.548500061,
,,,160.78756714,-74.948501587,
