4.csv

Record Length,1024,Points,0.0,-21.38969994,
Sample Interval,246.60669267E-3,Hz,246.60669267E-3,-18.5897007,
Trigger Point,0.0,Samples,493.213385344E-3,-25.38969994,
,,,739.820063114E-3,-84.589698792,
,,,986.426770687E-3,-86.989700317,
,,,1.2330334,-86.989700317,
Source,MATH,,1.4796401,-86.989700317,
Vertical Units,dB,,1.7262468,-86.989700317,
Vertical Scale,10.0000001,,1.9728535,-84.589698792,
Vertical Offset,-46.9897,,2.2194602,-86.989700317,
Horizontal Units,Hz,,2.4660668,-86.989700317,
Horizontal Scale,25.25252533,,2.7126737,-84.589698792,
Pt Fmt,Y,,2.95928025,-86.989700317,
Yzero,0.0,,3.20588708,-84.589698792,
,,,3.45249367,-81.389701843,
,,,3.69910049,-84.589698792,
Note,TDS 2012C - 9:42:02 PM   3/29/2026,,3.94570708,-86.989700317,
,,,4.19231367,-86.989700317,
,,,4.43892050,-86.989700317,
,,,4.68552732,-84.589698792,
,,,4.93213367,-84.589698792,
,,,5.17874050,-86.989700317,
,,,5.42534733,-86.989700317,
,,,5.67195415,-86.989700317,
,,,5.91856050,-86.989700317,
,,,6.16516733,-84.589698792,
,,,6.41177416,-86.989700317,
,,,6.65838051,-80.589698792,
,,,6.90498734,-77.389701843,
,,,7.15159416,-81.389701843,
,,,7.398200989,-81.389701843,
,,,7.644807339,-81.389701843,
,,,7.891414165,-86.989700317,
,,,8.138020515,-81.389701843,
,,,8.384627342,-86.989700317,
,,,8.631234169,-77.389701843,
,,,8.877840996,-71.789703369,
,,,9.124447823,-62.989700317,
,,,9.371054649,-46.98970032,
,,,9.617661476,-32.58969879,
,,,9.864267349,-29.78969955,
,,,10.1108742,-29.78969955,
,,,10.3574810,-31.78969955,
,,,10.6040878,-44.98970032,
,,,10.8506947,-61.389701843,
,,,11.0973015,-71.389701843,
,,,11.3439083,-77.789703369,
,,,11.5905142,-80.589698792,
,,,11.8371210,-81.389701843,
,,,12.0837278,-81.389701843,
,,,12.3303347,-81.389701843,
,,,12.5769415,-86.989700317,
,,,12.8235483,-86.989700317,
,,,13.0701551,-84.589698792,
,,,13.3167610,-86.989700317,
,,,13.5633678,-86.989700317,
,,,13.8099747,-86.989700317,
,,,14.0565815,-80.589698792,
,,,14.3031883,-77.389701843,
,,,14.5497952,-80.589698792,
,,,14.7964020,-80.589698792,
,,,15.0430079,-86.989700317,
,,,15.2896147,-86.989700317,
,,,15.5362215,-86.989700317,
,,,15.7828283,-84.589698792,
,,,16.0294342,-86.989700317,
,,,16.2760410,-86.989700317,
,,,16.5226479,-84.589698792,
,,,16.7692547,-78.589698792,
,,,17.0158615,-86.989700317,
,,,17.2624683,-86.989700317,
,,,17.5090752,-84.589698792,
,,,17.7556820,-84.589698792,
,,,18.0022888,-84.589698792,
,,,18.2488956,-86.989700317,
,,,18.4955025,-86.989700317,
,,,18.7421093,-86.989700317,
,,,18.9887161,-86.989700317,
,,,19.2353230,-86.989700317,
,,,19.4819279,-86.989700317,
,,,19.7285347,-77.389701843,
,,,19.9751415,-74.989700317,
,,,20.22174835,-77.389701843,
,,,20.46835518,-86.989700317,
,,,20.71496201,-86.989700317,
,,,20.96156883,-86.989700317,
,,,21.20817566,-86.989700317,
,,,21.45478249,-86.989700317,
,,,21.70138931,-86.989700317,
,,,21.94799614,-86.989700317,
,,,22.19460297,-86.989700317,
,,,22.44120979,-86.989700317,
,,,22.68781662,-86.989700317,
,,,22.93442154,-86.989700317,
,,,23.18102837,-86.989700317,
,,,23.42763519,-81.389701843,
,,,23.67424202,-77.789703369,
,,,23.92084885,-81.389701843,
,,,24.16745567,-86.989700317,
,,,24.41406250,-86.989700317,
,,,24.66066933,-86.989700317,
,,,24.90727615,-86.989700317,
,,,25.15388298,-86.989700317,
,,,25.40048981,-84.589698792,
,,,25.64709663,-84.589698792,
,,,25.89370346,-86.989700317,
,,,26.14031029,-86.989700317,
,,,26.38691521,-84.589698792,
,,,26.63352203,-84.589698792,
,,,26.88012886,-80.589698792,
,,,27.12673569,-86.989700317,
,,,27.37334251,-81.389701843,
,,,27.61994934,-86.989700317,
,,,27.86655617,-84.589698792,
,,,28.11316299,-86.989700317,
,,,28.35976982,-86.989700317,
,,,28.60637665,-86.989700317,
,,,28.85298347,-86.989700317,
,,,29.09959030,-86.989700317,
,,,29.34619713,-86.989700317,
,,,29.59280396,-86.989700317,
,,,29.83940887,-86.989700317,
,,,30.08601570,-86.989700317,
,,,30.33262253,-86.989700317,
,,,30.57922935,-84.589698792,
,,,30.82583618,-86.989700317,
,,,31.07244301,-86.989700317,
,,,31.31904984,-80.589698792,
,,,31.56565666,-76.189697266,
,,,31.81226349,-76.189697266,
,,,32.05886841,-77.389701843,
,,,32.30547714,-77.789703369,
,,,32.55208206,-84.589698792,
,,,32.79869080,-84.589698792,
,,,33.04529572,-86.989700317,
,,,33.29190445,-84.589698792,
,,,33.53850937,-80.589698792,
,,,33.78511810,-80.589698792,
,,,34.03172302,-84.589698792,
,,,34.27833176,-86.989700317,
,,,34.52493668,-84.589698792,
,,,34.77154541,-86.989700317,
,,,35.01815033,-86.989700317,
,,,35.26475525,-84.589698792,
,,,35.51136398,-86.989700317,
,,,35.75796890,-84.589698792,
,,,36.00457764,-84.589698792,
,,,36.25118256,-86.989700317,
,,,36.49779129,-86.989700317,
,,,36.74439621,-86.989700317,
,,,36.99100494,-86.989700317,
,,,37.23760986,-86.989700317,
,,,37.48421860,-86.989700317,
,,,37.73082352,-86.989700317,
,,,37.97743225,-86.989700317,
,,,38.22403717,-81.389701843,
,,,38.47064590,-81.389701843,
,,,38.71725082,-81.389701843,
,,,38.96385574,-86.989700317,
,,,39.21046448,-86.989700317,
,,,39.45706940,-86.989700317,
,,,39.70367813,-81.389701843,
,,,39.95028305,-80.589698792,
,,,40.19689178,-81.389701843,
,,,40.44349670,-84.589698792,
,,,40.69010544,-84.589698792,
,,,40.93671036,-78.589698792,
,,,41.18331909,-77.389701843,
,,,41.42992401,-81.389701843,
,,,41.67653275,-80.589698792,
,,,41.92313766,-84.589698792,
,,,42.16974258,-80.589698792,
,,,42.41635132,-80.589698792,
,,,42.66295624,-86.989700317,
,,,42.90956497,-80.589698792,
,,,43.15616989,-80.589698792,
,,,43.40277863,-81.389701843,
,,,43.64938354,-81.389701843,
,,,43.89599228,-80.589698792,
,,,44.14259720,-80.589698792,
,,,44.38920593,-81.389701843,
,,,44.63581085,-80.589698792,
,,,44.88241959,-80.589698792,
,,,45.12902451,-77.789703369,
,,,45.37563324,-77.789703369,
,,,45.62223816,-86.989700317,
,,,45.86884308,-84.589698792,
,,,46.11545181,-84.589698792,
,,,46.36205673,-84.589698792,
,,,46.60866547,-81.389701843,
,,,46.85527039,-81.389701843,
,,,47.10187912,-84.589698792,
,,,47.34848404,-84.589698792,
,,,47.59509277,-84.589698792,
,,,47.84169769,-81.389701843,
,,,48.08830643,-86.989700317,
,,,48.33491135,-86.989700317,
,,,48.58152008,-86.989700317,
,,,48.82812500,-84.589698792,
,,,49.07473373,-84.589698792,
,,,49.32133865,-76.189697266,
,,,49.56794357,-76.189697266,
,,,49.81455231,-76.189697266,
,,,50.06115723,-76.189697266,
,,,50.30776596,-81.389701843,
,,,50.55437088,-86.989700317,
,,,50.80097961,-80.589698792,
,,,51.04758453,-84.589698792,
,,,51.29419327,-84.589698792,
,,,51.54079819,-84.589698792,
,,,51.78740692,-84.589698792,
,,,52.03401184,-84.589698792,
,,,52.28062057,-86.989700317,
,,,52.52722549,-84.589698792,
,,,52.77383041,-86.989700317,
,,,53.02043915,-81.389701843,
,,,53.26704407,-80.589698792,
,,,53.51365280,-77.389701843,
,,,53.76025772,-81.389701843,
,,,54.00686646,-86.989700317,
,,,54.25347137,-86.989700317,
,,,54.50008011,-84.589698792,
,,,54.746685028,-84.589698792,
,,,54.993293762,-81.389701843,
,,,55.239898682,-80.589698792,
,,,55.486507416,-78.589698792,
,,,55.733112335,-80.589698792,
,,,55.979721069,-80.589698792,
,,,56.226325989,-86.989700317,
,,,56.472930908,-86.989700317,
,,,56.719539642,-86.989700317,
,,,56.966144562,-86.989700317,
,,,57.212753296,-86.989700317,
,,,57.459358215,-86.989700317,
,,,57.705966949,-86.989700317,
,,,57.952571869,-84.589698792,
,,,58.199180603,-84.589698792,
,,,58.445785522,-80.589698792,
,,,58.692394257,-84.589698792,
,,,58.938999176,-86.989700317,
,,,59.185607910,-84.589698792,
,,,59.432212830,-84.589698792,
,,,59.678817749,-81.389701843,
,,,59.925426483,-80.589698792,
,,,60.172031403,-80.589698792,
,,,60.418640137,-80.589698792,
,,,60.665245056,-80.589698792,
,,,60.911853790,-86.989700317,
,,,61.158458710,-86.989700317,
,,,61.405067444,-86.989700317,
,,,61.651672363,-86.989700317,
,,,61.898281097,-86.989700317,
,,,62.144886017,-86.989700317,
,,,62.391494751,-86.989700317,
,,,62.638099670,-86.989700317,
,,,62.884708405,-86.989700317,
,,,63.131313324,-86.989700317,
,,,63.377918243,-86.989700317,
,,,63.624526978,-84.589698792,
,,,63.871131897,-86.989700317,
,,,64.117736816,-86.989700317,
,,,64.364349365,-86.989700317,
,,,64.610954285,-86.989700317,
,,,64.857559204,-86.989700317,
,,,65.104164124,-86.989700317,
,,,65.350776672,-86.989700317,
,,,65.597381592,-86.989700317,
,,,65.843986511,-84.589698792,
,,,66.090591431,-81.389701843,
,,,66.337203979,-80.589698792,
,,,66.583808899,-84.589698792,
,,,66.830413818,-80.589698792,
,,,67.077018738,-86.989700317,
,,,67.323623657,-86.989700317,
,,,67.570236206,-86.989700317,
,,,67.816841125,-86.989700317,
,,,68.063446045,-81.389701843,
,,,68.310050964,-86.989700317,
,,,68.556663513,-86.989700317,
,,,68.803268433,-84.589698792,
,,,69.049873352,-81.389701843,
,,,69.296478271,-78.589698792,
,,,69.543090820,-78.589698792,
,,,69.789695740,-81.389701843,
,,,70.036300659,-86.989700317,
,,,70.282905579,-86.989700317,
,,,70.529510498,-86.989700317,
,,,70.776123047,-86.989700317,
,,,71.022727966,-86.989700317,
,,,71.269332886,-84.589698792,
,,,71.515937805,-84.589698792,
,,,71.762550354,-86.989700317,
,,,72.009155273,-86.989700317,
,,,72.255760193,-84.589698792,
,,,72.502365112,-86.989700317,
,,,72.748977661,-86.989700317,
,,,72.995582581,-86.989700317,
,,,73.242187500,-78.589698792,
,,,73.488792419,-80.589698792,
,,,73.735397339,-80.589698792,
,,,73.982009888,-86.989700317,
,,,74.228614807,-86.989700317,
,,,74.475219727,-84.589698792,
,,,74.721824646,-80.589698792,
,,,74.968437195,-80.589698792,
,,,75.215042114,-84.589698792,
,,,75.461647034,-86.989700317,
,,,75.708251953,-86.989700317,
,,,75.954864502,-86.989700317,
,,,76.201469421,-86.989700317,
,,,76.448074341,-80.589698792,
,,,76.694679260,-80.589698792,
,,,76.941291809,-86.989700317,
,,,77.187896729,-86.989700317,
,,,77.434501648,-84.589698792,
,,,77.681106567,-84.589698792,
,,,77.927711487,-84.589698792,
,,,78.174324036,-86.989700317,
,,,78.420928955,-84.589698792,
,,,78.667533875,-86.989700317,
,,,78.914138794,-84.589698792,
,,,79.160751343,-86.989700317,
,,,79.407356262,-86.989700317,
,,,79.653961182,-86.989700317,
,,,79.900566101,-81.389701843,
,,,80.147178650,-80.589698792,
,,,80.393783569,-80.589698792,
,,,80.640388489,-81.389701843,
,,,80.886993408,-81.389701843,
,,,81.133598328,-86.989700317,
,,,81.380210876,-86.989700317,
,,,81.626815796,-86.989700317,
,,,81.873420715,-84.589698792,
,,,82.120025635,-80.589698792,
,,,82.366638184,-86.989700317,
,,,82.613243103,-84.589698792,
,,,82.859848022,-86.989700317,
,,,83.106452942,-86.989700317,
,,,83.353065491,-86.989700317,
,,,83.599670410,-86.989700317,
,,,83.846275330,-86.989700317,
,,,84.092880249,-86.989700317,
,,,84.339485168,-81.389701843,
,,,84.586097717,-80.589698792,
,,,84.832702637,-78.589698792,
,,,85.079307556,-78.589698792,
,,,85.325912476,-78.589698792,
,,,85.572525024,-84.589698792,
,,,85.819129944,-84.589698792,
,,,86.065734863,-86.989700317,
,,,86.312339783,-86.989700317,
,,,86.558952332,-86.989700317,
,,,86.805557251,-84.589698792,
,,,87.052162170,-81.389701843,
,,,87.298767090,-80.589698792,
,,,87.545379639,-80.589698792,
,,,87.791984558,-86.989700317,
,,,88.038589478,-86.989700317,
,,,88.285194397,-84.589698792,
,,,88.531799316,-80.589698792,
,,,88.778411865,-80.589698792,
,,,89.025016785,-84.589698792,
,,,89.271621704,-86.989700317,
,,,89.518226624,-86.989700317,
,,,89.764839172,-84.589698792,
,,,90.011444092,-80.589698792,
,,,90.258049011,-84.589698792,
,,,90.504653931,-81.389701843,
,,,90.751266479,-86.989700317,
,,,90.997871399,-84.589698792,
,,,91.244476318,-81.389701843,
,,,91.491081238,-84.589698792,
,,,91.737686157,-86.989700317,
,,,91.984298706,-86.989700317,
,,,92.230903625,-86.989700317,
,,,92.477508545,-80.589698792,
,,,92.724113464,-81.389701843,
,,,92.970726013,-81.389701843,
,,,93.217330933,-86.989700317,
,,,93.463935852,-86.989700317,
,,,93.710540771,-84.589698792,
,,,93.957153320,-80.589698792,
,,,94.203758240,-84.589698792,
,,,94.450363159,-77.389701843,
,,,94.696968079,-74.989700317,
,,,94.943572998,-74.989700317,
,,,95.190185547,-74.989700317,
,,,95.436790466,-77.389701843,
,,,95.683395386,-86.989700317,
,,,95.930000305,-84.589698792,
,,,96.176612854,-86.989700317,
,,,96.423217773,-86.989700317,
,,,96.669822693,-84.589698792,
,,,96.916427612,-80.589698792,
,,,97.163040161,-84.589698792,
,,,97.409645081,-84.589698792,
,,,97.656250000,-86.989700317,
,,,97.902854919,-80.589698792,
,,,98.149467468,-74.989700317,
,,,98.396072388,-76.189697266,
,,,98.642677307,-80.589698792,
,,,98.889282227,-86.989700317,
,,,99.135887146,-86.989700317,
,,,99.382499695,-86.989700317,
,,,99.629104614,-86.989700317,
,,,99.875709534,-86.989700317,
,,,100.1223145,-84.589698792,
,,,100.3689270,-86.989700317,
,,,100.6155319,-86.989700317,
,,,100.8621368,-86.989700317,
,,,101.1087418,-84.589698792,
,,,101.3553543,-80.589698792,
,,,101.6019592,-86.989700317,
,,,101.8485641,-84.589698792,
,,,102.0951691,-86.989700317,
,,,102.3417740,-86.989700317,
,,,102.5883865,-86.989700317,
,,,102.8349915,-81.389701843,
,,,103.0815964,-81.389701843,
,,,103.3282013,-86.989700317,
,,,103.5748138,-86.989700317,
,,,103.8214188,-80.589698792,
,,,104.0680237,-80.589698792,
,,,104.3146286,-64.989700317,
,,,104.5612411,-44.58969879,
,,,104.8078461,-40.18970108,
,,,105.0544510,-40.18970108,
,,,105.3010559,-41.38970184,
,,,105.5476608,-50.18970108,
,,,105.7942734,-73.389701843,
,,,106.0408783,-86.989700317,
,,,106.2874832,-78.589698792,
,,,106.5340881,-80.589698792,
,,,106.7807007,-78.589698792,
,,,107.0273056,-84.589698792,
,,,107.2739105,-86.989700317,
,,,107.5205154,-84.589698792,
,,,107.7671280,-86.989700317,
,,,108.0137329,-86.989700317,
,,,108.2603378,-86.989700317,
,,,108.5069427,-84.589698792,
,,,108.7535477,-84.589698792,
,,,109.0001602,-86.989700317,
,,,109.2467651,-86.989700317,
,,,109.4933701,-86.989700317,
,,,109.7399750,-84.589698792,
,,,109.9865875,-86.989700317,
,,,110.2331924,-86.989700317,
,,,110.4797974,-86.989700317,
,,,110.7264023,-86.989700317,
,,,110.9730148,-86.989700317,
,,,111.2196198,-86.989700317,
,,,111.4662247,-86.989700317,
,,,111.7128296,-86.989700317,
,,,111.9594421,-86.989700317,
,,,112.2060471,-86.989700317,
,,,112.4526520,-84.589698792,
,,,112.6992569,-84.589698792,
,,,112.9458618,-81.389701843,
,,,113.1924744,-78.589698792,
,,,113.4390793,-84.589698792,
,,,113.6856842,-84.589698792,
,,,113.9322891,-86.989700317,
,,,114.1789017,-86.989700317,
,,,114.4255066,-84.589698792,
,,,114.6721115,-84.589698792,
,,,114.9187164,-84.589698792,
,,,115.1653290,-80.589698792,
,,,115.4119339,-86.989700317,
,,,115.6585388,-86.989700317,
,,,115.9051437,-81.389701843,
,,,116.1517487,-86.989700317,
,,,116.3983612,-86.989700317,
,,,116.6449661,-86.989700317,
,,,116.8915710,-84.589698792,
,,,117.1381760,-84.589698792,
,,,117.3847885,-84.589698792,
,,,117.6313934,-84.589698792,
,,,117.8779984,-86.989700317,
,,,118.1246033,-84.589698792,
,,,118.3712158,-86.989700317,
,,,118.6178207,-86.989700317,
,,,118.8644257,-84.589698792,
,,,119.1110306,-86.989700317,
,,,119.3576355,-86.989700317,
,,,119.6042480,-86.989700317,
,,,119.8508530,-84.589698792,
,,,120.0974579,-84.589698792,
,,,120.3440628,-86.989700317,
,,,120.5906754,-86.989700317,
,,,120.8372803,-86.989700317,
,,,121.0838852,-86.989700317,
,,,121.3304901,-86.989700317,
,,,121.5771027,-86.989700317,
,,,121.8237076,-86.989700317,
,,,122.0703125,-86.989700317,
,,,122.3169174,-86.989700317,
,,,122.5635300,-86.989700317,
,,,122.8101349,-86.989700317,
,,,123.0567398,-86.989700317,
,,,123.3033447,-86.989700317,
,,,123.5499496,-86.989700317,
,,,123.7965622,-86.989700317,
,,,124.0431671,-80.589698792,
,,,124.2897720,-86.989700317,
,,,124.5363770,-80.589698792,
,,,124.7829895,-86.989700317,
,,,125.0295944,-86.989700317,
,,,125.2761993,-80.589698792,
,,,125.5228043,-80.589698792,
,,,125.7694168,-77.389701843,
,,,126.0160217,-84.589698792,
,,,126.2626266,-80.589698792,
,,,126.5092316,-84.589698792,
,,,126.7558365,-84.589698792,
,,,127.0024490,-84.589698792,
,,,127.2490540,-86.989700317,
,,,127.4956589,-86.989700317,
,,,127.7422638,-84.589698792,
,,,127.9888763,-84.589698792,
,,,128.2354736,-78.589698792,
,,,128.4820862,-84.589698792,
,,,128.7286987,-84.589698792,
,,,128.9752960,-86.989700317,
,,,129.2219086,-86.989700317,
,,,129.4685211,-86.989700317,
,,,129.7151184,-86.989700317,
,,,129.9617310,-84.589698792,
,,,130.2083282,-86.989700317,
,,,130.4549408,-86.989700317,
,,,130.7015533,-86.989700317,
,,,130.9481506,-84.589698792,
,,,131.1947632,-86.989700317,
,,,131.4413605,-86.989700317,
,,,131.6879730,-84.589698792,
,,,131.9345856,-80.589698792,
,,,132.1811829,-86.989700317,
,,,132.4277954,-86.989700317,
,,,132.6744080,-86.989700317,
,,,132.9210052,-86.989700317,
,,,133.1676178,-86.989700317,
,,,133.4142151,-80.589698792,
,,,133.6608276,-86.989700317,
,,,133.9074402,-86.989700317,
,,,134.1540375,-86.989700317,
,,,134.4006500,-86.989700317,
,,,134.6472473,-84.589698792,
,,,134.8938599,-86.989700317,
,,,135.1404724,-86.989700317,
,,,135.3870697,-86.989700317,
,,,135.6336823,-81.389701843,
,,,135.8802948,-81.389701843,
,,,136.1268921,-81.389701843,
,,,136.3735046,-80.589698792,
,,,136.6201019,-84.589698792,
,,,136.8667145,-78.589698792,
,,,137.1133270,-84.589698792,
,,,137.3599243,-84.589698792,
,,,137.6065369,-86.989700317,
,,,137.8531342,-84.589698792,
,,,138.0997467,-84.589698792,
,,,138.3463593,-84.589698792,
,,,138.5929565,-80.589698792,
,,,138.8395691,-84.589698792,
,,,139.0861816,-84.589698792,
,,,139.3327789,-86.989700317,
,,,139.5793915,-86.989700317,
,,,139.8259888,-86.989700317,
,,,140.0726013,-86.989700317,
,,,140.3192139,-86.989700317,
,,,140.5658112,-86.989700317,
,,,140.8124237,-86.989700317,
,,,141.0590210,-86.989700317,
,,,141.3056335,-86.989700317,
,,,141.5522461,-81.389701843,
,,,141.7988434,-81.389701843,
,,,142.0454559,-80.589698792,
,,,142.2920685,-84.589698792,
,,,142.5386658,-86.989700317,
,,,142.7852783,-86.989700317,
,,,143.0318756,-86.989700317,
,,,143.2784882,-86.989700317,
,,,143.5251007,-86.989700317,
,,,143.7716980,-86.989700317,
,,,144.0183105,-86.989700317,
,,,144.2649078,-84.589698792,
,,,144.5115204,-86.989700317,
,,,144.7581329,-84.589698792,
,,,145.0047302,-86.989700317,
,,,145.2513428,-84.589698792,
,,,145.4979553,-86.989700317,
,,,145.7445526,-81.389701843,
,,,145.9911652,-86.989700317,
,,,146.2377625,-80.589698792,
,,,146.4843750,-78.589698792,
,,,146.7309875,-78.589698792,
,,,146.9775848,-78.589698792,
,,,147.2241974,-84.589698792,
,,,147.4707947,-80.589698792,
,,,147.7174072,-80.589698792,
,,,147.9640198,-84.589698792,
,,,148.2106171,-86.989700317,
,,,148.45722961,-86.989700317,
,,,148.70384216,-86.989700317,
,,,148.95043945,-86.989700317,
,,,149.19705200,-86.989700317,
,,,149.44364929,-84.589698792,
,,,149.69026184,-84.589698792,
,,,149.93687439,-78.589698792,
,,,150.18347168,-80.589698792,
,,,150.43008423,-80.589698792,
,,,150.67669678,-80.589698792,
,,,150.92329407,-84.589698792,
,,,151.16990662,-84.589698792,
,,,151.41650391,-80.589698792,
,,,151.66311646,-84.589698792,
,,,151.90972900,-81.389701843,
,,,152.15632629,-86.989700317,
,,,152.40293884,-86.989700317,
,,,152.64953613,-86.989700317,
,,,152.89614868,-86.989700317,
,,,153.14276123,-84.589698792,
,,,153.38935852,-86.989700317,
,,,153.63597107,-86.989700317,
,,,153.88258362,-86.989700317,
,,,154.12918091,-84.589698792,
,,,154.37579346,-84.589698792,
,,,154.62239075,-86.989700317,
,,,154.86900330,-81.389701843,
,,,155.11561584,-86.989700317,
,,,155.36221313,-84.589698792,
,,,155.60882568,-86.989700317,
,,,155.85542297,-81.389701843,
,,,156.10203552,-80.589698792,
,,,156.34864807,-78.589698792,
,,,156.59524536,-84.589698792,
,,,156.84185791,-84.589698792,
,,,157.08847046,-86.989700317,
,,,157.33506775,-86.989700317,
,,,157.58168030,-77.389701843,
,,,157.82827759,-80.589698792,
,,,158.07489014,-80.589698792,
,,,158.32150269,-86.989700317,
,,,158.56809998,-84.589698792,
,,,158.81471252,-86.989700317,
,,,159.06130981,-86.989700317,
,,,159.30792236,-86.989700317,
,,,159.55453491,-84.589698792,
,,,159.80113220,-86.989700317,
,,,160.04774475,-86.989700317,
,,,160.29435730,-86.989700317,
,,,160.54095459,-86.989700317,
,,,160.78756714,-86.989700317,
