AliasingEffect/FFT data/1.csv

Record Length,1024,Points,0.0,-21.38969994,
Sample Interval,246.60669267E-3,Hz,246.60669267E-3,-18.5897007,
Trigger Point,0.0,Samples,493.213385344E-3,-25.38969994,
,,,739.820063114E-3,-86.989700317,
,,,986.426770687E-3,-86.989700317,
,,,1.2330334,-84.589698792,
Source,MATH,,1.4796401,-86.989700317,
Vertical Units,dB,,1.7262468,-84.589698792,
Vertical Scale,10.0000001,,1.9728535,-80.589698792,
Vertical Offset,-46.9897,,2.2194602,-81.389701843,
Horizontal Units,Hz,,2.4660668,-81.389701843,
Horizontal Scale,25.25252533,,2.7126737,-84.589698792,
Pt Fmt,Y,,2.95928025,-86.989700317,
Yzero,0.0,,3.20588708,-86.989700317,
,,,3.45249367,-84.589698792,
,,,3.69910049,-80.589698792,
Note,TDS 2012C - 9:38:11 PM   3/29/2026,,3.94570708,-80.589698792,
,,,4.19231367,-86.989700317,
,,,4.43892050,-84.589698792,
,,,4.68552732,-81.389701843,
,,,4.93213367,-84.589698792,
,,,5.17874050,-86.989700317,
,,,5.42534733,-86.989700317,
,,,5.67195415,-86.989700317,
,,,5.91856050,-84.589698792,
,,,6.16516733,-86.989700317,
,,,6.41177416,-81.389701843,
,,,6.65838051,-86.989700317,
,,,6.90498734,-86.989700317,
,,,7.15159416,-86.989700317,
,,,7.398200989,-86.989700317,
,,,7.644807339,-84.589698792,
,,,7.891414165,-81.389701843,
,,,8.138020515,-81.389701843,
,,,8.384627342,-86.989700317,
,,,8.631234169,-73.389701843,
,,,8.877840996,-73.389701843,
,,,9.124447823,-62.189701080,
,,,9.371054649,-46.58969879,
,,,9.617661476,-31.78969955,
,,,9.864267349,-28.98970032,
,,,10.1108742,-28.98970032,
,,,10.3574810,-31.38969994,
,,,10.6040878,-44.18970108,
,,,10.8506947,-60.189701080,
,,,11.0973015,-71.789703369,
,,,11.3439083,-76.189697266,
,,,11.5905142,-77.389701843,
,,,11.8371210,-84.589698792,
,,,12.0837278,-77.789703369,
,,,12.3303347,-80.589698792,
,,,12.5769415,-80.589698792,
,,,12.8235483,-84.589698792,
,,,13.0701551,-86.989700317,
,,,13.3167610,-84.589698792,
,,,13.5633678,-84.589698792,
,,,13.8099747,-81.389701843,
,,,14.0565815,-77.789703369,
,,,14.3031883,-77.389701843,
,,,14.5497952,-81.389701843,
,,,14.7964020,-81.389701843,
,,,15.0430079,-84.589698792,
,,,15.2896147,-86.989700317,
,,,15.5362215,-86.989700317,
,,,15.7828283,-78.589698792,
,,,16.0294342,-80.589698792,
,,,16.2760410,-86.989700317,
,,,16.5226479,-86.989700317,
,,,16.7692547,-86.989700317,
,,,17.0158615,-86.989700317,
,,,17.2624683,-86.989700317,
,,,17.5090752,-84.589698792,
,,,17.7556820,-80.589698792,
,,,18.0022888,-80.589698792,
,,,18.2488956,-81.389701843,
,,,18.4955025,-86.989700317,
,,,18.7421093,-86.989700317,
,,,18.9887161,-84.589698792,
,,,19.2353230,-81.389701843,
,,,19.4819279,-80.589698792,
,,,19.7285347,-70.189697266,
,,,19.9751415,-66.989700317,
,,,20.22174835,-66.989700317,
,,,20.46835518,-68.189697266,
,,,20.71496201,-77.389701843,
,,,20.96156883,-86.989700317,
,,,21.20817566,-84.589698792,
,,,21.45478249,-84.589698792,
,,,21.70138931,-84.589698792,
,,,21.94799614,-84.589698792,
,,,22.19460297,-86.989700317,
,,,22.44120979,-86.989700317,
,,,22.68781662,-81.389701843,
,,,22.93442154,-81.389701843,
,,,23.18102837,-81.389701843,
,,,23.42763519,-81.389701843,
,,,23.67424202,-86.989700317,
,,,23.92084885,-86.989700317,
,,,24.16745567,-86.989700317,
,,,24.41406250,-78.589698792,
,,,24.66066933,-80.589698792,
,,,24.90727615,-86.989700317,
,,,25.15388298,-86.989700317,
,,,25.40048981,-84.589698792,
,,,25.64709663,-80.589698792,
,,,25.89370346,-84.589698792,
,,,26.14031029,-86.989700317,
,,,26.38691521,-84.589698792,
,,,26.63352203,-86.989700317,
,,,26.88012886,-84.589698792,
,,,27.12673569,-86.989700317,
,,,27.37334251,-86.989700317,
,,,27.61994934,-84.589698792,
,,,27.86655617,-86.989700317,
,,,28.11316299,-81.389701843,
,,,28.35976982,-80.589698792,
,,,28.60637665,-80.589698792,
,,,28.85298347,-86.989700317,
,,,29.09959030,-86.989700317,
,,,29.34619713,-86.989700317,
,,,29.59280396,-86.989700317,
,,,29.83940887,-80.589698792,
,,,30.08601570,-72.989700317,
,,,30.33262253,-74.589698792,
,,,30.57922935,-74.989700317,
,,,30.82583618,-78.589698792,
,,,31.07244301,-86.989700317,
,,,31.31904984,-86.989700317,
,,,31.56565666,-86.989700317,
,,,31.81226349,-80.589698792,
,,,32.05886841,-86.989700317,
,,,32.30547714,-86.989700317,
,,,32.55208206,-86.989700317,
,,,32.79869080,-80.589698792,
,,,33.04529572,-86.989700317,
,,,33.29190445,-86.989700317,
,,,33.53850937,-86.989700317,
,,,33.78511810,-84.589698792,
,,,34.03172302,-86.989700317,
,,,34.27833176,-81.389701843,
,,,34.52493668,-84.589698792,
,,,34.77154541,-86.989700317,
,,,35.01815033,-86.989700317,
,,,35.26475525,-84.589698792,
,,,35.51136398,-86.989700317,
,,,35.75796890,-86.989700317,
,,,36.00457764,-80.589698792,
,,,36.25118256,-76.189697266,
,,,36.49779129,-77.389701843,
,,,36.74439621,-80.589698792,
,,,36.99100494,-86.989700317,
,,,37.23760986,-86.989700317,
,,,37.48421860,-84.589698792,
,,,37.73082352,-84.589698792,
,,,37.97743225,-80.589698792,
,,,38.22403717,-77.389701843,
,,,38.47064590,-81.389701843,
,,,38.71725082,-86.989700317,
,,,38.96385574,-81.389701843,
,,,39.21046448,-80.589698792,
,,,39.45706940,-80.589698792,
,,,39.70367813,-86.989700317,
,,,39.95028305,-81.389701843,
,,,40.19689178,-74.989700317,
,,,40.44349670,-75.389701843,
,,,40.69010544,-80.589698792,
,,,40.93671036,-86.989700317,
,,,41.18331909,-77.389701843,
,,,41.42992401,-80.589698792,
,,,41.67653275,-81.389701843,
,,,41.92313766,-81.389701843,
,,,42.16974258,-80.589698792,
,,,42.41635132,-80.589698792,
,,,42.66295624,-78.589698792,
,,,42.90956497,-80.589698792,
,,,43.15616989,-86.989700317,
,,,43.40277863,-86.989700317,
,,,43.64938354,-80.589698792,
,,,43.89599228,-80.589698792,
,,,44.14259720,-77.389701843,
,,,44.38920593,-80.589698792,
,,,44.63581085,-80.589698792,
,,,44.88241959,-77.389701843,
,,,45.12902451,-77.389701843,
,,,45.37563324,-86.989700317,
,,,45.62223816,-86.989700317,
,,,45.86884308,-81.389701843,
,,,46.11545181,-80.589698792,
,,,46.36205673,-80.589698792,
,,,46.60866547,-84.589698792,
,,,46.85527039,-84.589698792,
,,,47.10187912,-80.589698792,
,,,47.34848404,-81.389701843,
,,,47.59509277,-86.989700317,
,,,47.84169769,-86.989700317,
,,,48.08830643,-86.989700317,
,,,48.33491135,-86.989700317,
,,,48.58152008,-86.989700317,
,,,48.82812500,-86.989700317,
,,,49.07473373,-86.989700317,
,,,49.32133865,-84.589698792,
,,,49.56794357,-80.589698792,
,,,49.81455231,-81.389701843,
,,,50.06115723,-84.589698792,
,,,50.30776596,-86.989700317,
,,,50.55437088,-80.589698792,
,,,50.80097961,-81.389701843,
,,,51.04758453,-84.589698792,
,,,51.29419327,-86.989700317,
,,,51.54079819,-86.989700317,
,,,51.78740692,-86.989700317,
,,,52.03401184,-86.989700317,
,,,52.28062057,-81.389701843,
,,,52.52722549,-80.589698792,
,,,52.77383041,-81.389701843,
,,,53.02043915,-80.589698792,
,,,53.26704407,-81.389701843,
,,,53.51365280,-86.989700317,
,,,53.76025772,-86.989700317,
,,,54.00686646,-84.589698792,
,,,54.25347137,-77.389701843,
,,,54.50008011,-74.589698792,
,,,54.746685028,-74.589698792,
,,,54.993293762,-80.589698792,
,,,55.239898682,-81.389701843,
,,,55.486507416,-86.989700317,
,,,55.733112335,-84.589698792,
,,,55.979721069,-84.589698792,
,,,56.226325989,-80.589698792,
,,,56.472930908,-81.389701843,
,,,56.719539642,-80.589698792,
,,,56.966144562,-86.989700317,
,,,57.212753296,-86.989700317,
,,,57.459358215,-86.989700317,
,,,57.705966949,-86.989700317,
,,,57.952571869,-86.989700317,
,,,58.199180603,-86.989700317,
,,,58.445785522,-86.989700317,
,,,58.692394257,-80.589698792,
,,,58.938999176,-86.989700317,
,,,59.185607910,-81.389701843,
,,,59.432212830,-86.989700317,
,,,59.678817749,-86.989700317,
,,,59.925426483,-86.989700317,
,,,60.172031403,-84.589698792,
,,,60.418640137,-86.989700317,
,,,60.665245056,-81.389701843,
,,,60.911853790,-81.389701843,
,,,61.158458710,-86.989700317,
,,,61.405067444,-86.989700317,
,,,61.651672363,-86.989700317,
,,,61.898281097,-86.989700317,
,,,62.144886017,-84.589698792,
,,,62.391494751,-86.989700317,
,,,62.638099670,-86.989700317,
,,,62.884708405,-84.589698792,
,,,63.131313324,-80.589698792,
,,,63.377918243,-78.589698792,
,,,63.624526978,-84.589698792,
,,,63.871131897,-86.989700317,
,,,64.117736816,-76.189697266,
,,,64.364349365,-72.589698792,
,,,64.610954285,-72.189697266,
,,,64.857559204,-73.389701843,
,,,65.104164124,-80.589698792,
,,,65.350776672,-86.989700317,
,,,65.597381592,-86.989700317,
,,,65.843986511,-84.589698792,
,,,66.090591431,-86.989700317,
,,,66.337203979,-84.589698792,
,,,66.583808899,-84.589698792,
,,,66.830413818,-86.989700317,
,,,67.077018738,-86.989700317,
,,,67.323623657,-84.589698792,
,,,67.570236206,-86.989700317,
,,,67.816841125,-81.389701843,
,,,68.063446045,-81.389701843,
,,,68.310050964,-81.389701843,
,,,68.556663513,-84.589698792,
,,,68.803268433,-84.589698792,
,,,69.049873352,-80.589698792,
,,,69.296478271,-86.989700317,
,,,69.543090820,-84.589698792,
,,,69.789695740,-86.989700317,
,,,70.036300659,-86.989700317,
,,,70.282905579,-84.589698792,
,,,70.529510498,-86.989700317,
,,,70.776123047,-81.389701843,
,,,71.022727966,-80.589698792,
,,,71.269332886,-84.589698792,
,,,71.515937805,-86.989700317,
,,,71.762550354,-84.589698792,
,,,72.009155273,-86.989700317,
,,,72.255760193,-86.989700317,
,,,72.502365112,-84.589698792,
,,,72.748977661,-77.389701843,
,,,72.995582581,-77.789703369,
,,,73.242187500,-80.589698792,
,,,73.488792419,-86.989700317,
,,,73.735397339,-86.989700317,
,,,73.982009888,-84.589698792,
,,,74.228614807,-84.589698792,
,,,74.475219727,-72.989700317,
,,,74.721824646,-70.189697266,
,,,74.968437195,-70.189697266,
,,,75.215042114,-74.589698792,
,,,75.461647034,-86.989700317,
,,,75.708251953,-86.989700317,
,,,75.954864502,-86.989700317,
,,,76.201469421,-86.989700317,
,,,76.448074341,-86.989700317,
,,,76.694679260,-84.589698792,
,,,76.941291809,-84.589698792,
,,,77.187896729,-81.389701843,
,,,77.434501648,-86.989700317,
,,,77.681106567,-84.589698792,
,,,77.927711487,-80.589698792,
,,,78.174324036,-76.189697266,
,,,78.420928955,-77.389701843,
,,,78.667533875,-77.389701843,
,,,78.914138794,-80.589698792,
,,,79.160751343,-81.389701843,
,,,79.407356262,-80.589698792,
,,,79.653961182,-86.989700317,
,,,79.900566101,-86.989700317,
,,,80.147178650,-84.589698792,
,,,80.393783569,-78.589698792,
,,,80.640388489,-78.589698792,
,,,80.886993408,-78.589698792,
,,,81.133598328,-80.589698792,
,,,81.380210876,-86.989700317,
,,,81.626815796,-86.989700317,
,,,81.873420715,-86.989700317,
,,,82.120025635,-86.989700317,
,,,82.366638184,-86.989700317,
,,,82.613243103,-86.989700317,
,,,82.859848022,-84.589698792,
,,,83.106452942,-86.989700317,
,,,83.353065491,-86.989700317,
,,,83.599670410,-84.589698792,
,,,83.846275330,-86.989700317,
,,,84.092880249,-86.989700317,
,,,84.339485168,-73.389701843,
,,,84.586097717,-64.189697266,
,,,84.832702637,-62.589698792,
,,,85.079307556,-63.789699554,
,,,85.325912476,-68.989700317,
,,,85.572525024,-84.589698792,
,,,85.819129944,-86.989700317,
,,,86.065734863,-86.989700317,
,,,86.312339783,-80.589698792,
,,,86.558952332,-84.589698792,
,,,86.805557251,-81.389701843,
,,,87.052162170,-84.589698792,
,,,87.298767090,-78.589698792,
,,,87.545379639,-80.589698792,
,,,87.791984558,-80.589698792,
,,,88.038589478,-84.589698792,
,,,88.285194397,-81.389701843,
,,,88.531799316,-84.589698792,
,,,88.778411865,-84.589698792,
,,,89.025016785,-81.389701843,
,,,89.271621704,-84.589698792,
,,,89.518226624,-84.589698792,
,,,89.764839172,-86.989700317,
,,,90.011444092,-81.389701843,
,,,90.258049011,-81.389701843,
,,,90.504653931,-81.389701843,
,,,90.751266479,-86.989700317,
,,,90.997871399,-86.989700317,
,,,91.244476318,-84.589698792,
,,,91.491081238,-81.389701843,
,,,91.737686157,-84.589698792,
,,,91.984298706,-80.589698792,
,,,92.230903625,-81.389701843,
,,,92.477508545,-81.389701843,
,,,92.724113464,-80.589698792,
,,,92.970726013,-80.589698792,
,,,93.217330933,-84.589698792,
,,,93.463935852,-86.989700317,
,,,93.710540771,-86.989700317,
,,,93.957153320,-86.989700317,
,,,94.203758240,-86.989700317,
,,,94.450363159,-78.589698792,
,,,94.696968079,-64.589698792,
,,,94.943572998,-61.789699554,
,,,95.190185547,-62.589698792,
,,,95.436790466,-64.189697266,
,,,95.683395386,-76.189697266,
,,,95.930000305,-84.589698792,
,,,96.176612854,-84.589698792,
,,,96.423217773,-80.589698792,
,,,96.669822693,-80.589698792,
,,,96.916427612,-81.389701843,
,,,97.163040161,-81.389701843,
,,,97.409645081,-84.589698792,
,,,97.656250000,-84.589698792,
,,,97.902854919,-81.389701843,
,,,98.149467468,-81.389701843,
,,,98.396072388,-80.589698792,
,,,98.642677307,-84.589698792,
,,,98.889282227,-80.589698792,
,,,99.135887146,-78.589698792,
,,,99.382499695,-84.589698792,
,,,99.629104614,-84.589698792,
,,,99.875709534,-86.989700317,
,,,100.1223145,-84.589698792,
,,,100.3689270,-80.589698792,
,,,100.6155319,-81.389701843,
,,,100.8621368,-86.989700317,
,,,101.1087418,-86.989700317,
,,,101.3553543,-80.589698792,
,,,101.6019592,-77.789703369,
,,,101.8485641,-76.189697266,
,,,102.0951691,-84.589698792,
,,,102.3417740,-86.989700317,
,,,102.5883865,-80.589698792,
,,,102.8349915,-80.589698792,
,,,103.0815964,-86.989700317,
,,,103.3282013,-81.389701843,
,,,103.5748138,-84.589698792,
,,,103.8214188,-74.589698792,
,,,104.0680237,-68.189697266,
,,,104.3146286,-54.58969879,
,,,104.5612411,-32.98970032,
,,,104.8078461,-28.58970070,
,,,105.0544510,-28.18969917,
,,,105.3010559,-29.38969994,
,,,105.5476608,-38.58969879,
,,,105.7942734,-60.589698792,
,,,106.0408783,-72.989700317,
,,,106.2874832,-73.389701843,
,,,106.5340881,-84.589698792,
,,,106.7807007,-80.589698792,
,,,107.0273056,-86.989700317,
,,,107.2739105,-86.989700317,
,,,107.5205154,-81.389701843,
,,,107.7671280,-81.389701843,
,,,108.0137329,-84.589698792,
,,,108.2603378,-86.989700317,
,,,108.5069427,-84.589698792,
,,,108.7535477,-78.589698792,
,,,109.0001602,-80.589698792,
,,,109.2467651,-84.589698792,
,,,109.4933701,-86.989700317,
,,,109.7399750,-86.989700317,
,,,109.9865875,-86.989700317,
,,,110.2331924,-84.589698792,
,,,110.4797974,-86.989700317,
,,,110.7264023,-86.989700317,
,,,110.9730148,-86.989700317,
,,,111.2196198,-84.589698792,
,,,111.4662247,-84.589698792,
,,,111.7128296,-86.989700317,
,,,111.9594421,-86.989700317,
,,,112.2060471,-86.989700317,
,,,112.4526520,-86.989700317,
,,,112.6992569,-86.989700317,
,,,112.9458618,-86.989700317,
,,,113.1924744,-86.989700317,
,,,113.4390793,-86.989700317,
,,,113.6856842,-86.989700317,
,,,113.9322891,-86.989700317,
,,,114.1789017,-84.589698792,
,,,114.4255066,-84.589698792,
,,,114.6721115,-63.389701843,
,,,114.9187164,-60.189701080,
,,,115.1653290,-59.389701843,
,,,115.4119339,-60.589698792,
,,,115.6585388,-69.789703369,
,,,115.9051437,-84.589698792,
,,,116.1517487,-84.589698792,
,,,116.3983612,-86.989700317,
,,,116.6449661,-86.989700317,
,,,116.8915710,-86.989700317,
,,,117.1381760,-86.989700317,
,,,117.3847885,-84.589698792,
,,,117.6313934,-86.989700317,
,,,117.8779984,-86.989700317,
,,,118.1246033,-86.989700317,
,,,118.3712158,-86.989700317,
,,,118.6178207,-86.989700317,
,,,118.8644257,-78.589698792,
,,,119.1110306,-76.189697266,
,,,119.3576355,-78.589698792,
,,,119.6042480,-84.589698792,
,,,119.8508530,-81.389701843,
,,,120.0974579,-77.789703369,
,,,120.3440628,-74.989700317,
,,,120.5906754,-76.189697266,
,,,120.8372803,-80.589698792,
,,,121.0838852,-86.989700317,
,,,121.3304901,-86.989700317,
,,,121.5771027,-84.589698792,
,,,121.8237076,-84.589698792,
,,,122.0703125,-84.589698792,
,,,122.3169174,-86.989700317,
,,,122.5635300,-84.589698792,
,,,122.8101349,-81.389701843,
,,,123.0567398,-80.589698792,
,,,123.3033447,-84.589698792,
,,,123.5499496,-86.989700317,
,,,123.7965622,-84.589698792,
,,,124.0431671,-84.589698792,
,,,124.2897720,-86.989700317,
,,,124.5363770,-84.589698792,
,,,124.7829895,-71.389701843,
,,,125.0295944,-69.789703369,
,,,125.2761993,-68.989700317,
,,,125.5228043,-71.389701843,
,,,125.7694168,-80.589698792,
,,,126.0160217,-86.989700317,
,,,126.2626266,-84.589698792,
,,,126.5092316,-84.589698792,
,,,126.7558365,-86.989700317,
,,,127.0024490,-86.989700317,
,,,127.2490540,-86.989700317,
,,,127.4956589,-81.389701843,
,,,127.7422638,-81.389701843,
,,,127.9888763,-86.989700317,
,,,128.2354736,-86.989700317,
,,,128.4820862,-86.989700317,
,,,128.7286987,-81.389701843,
,,,128.9752960,-77.389701843,
,,,129.2219086,-80.589698792,
,,,129.4685211,-80.589698792,
,,,129.7151184,-81.389701843,
,,,129.9617310,-77.789703369,
,,,130.2083282,-74.989700317,
,,,130.4549408,-75.389701843,
,,,130.7015533,-80.589698792,
,,,130.9481506,-80.589698792,
,,,131.1947632,-77.389701843,
,,,131.4413605,-74.989700317,
,,,131.6879730,-77.389701843,
,,,131.9345856,-86.989700317,
,,,132.1811829,-81.389701843,
,,,132.4277954,-84.589698792,
,,,132.6744080,-78.589698792,
,,,132.9210052,-80.589698792,
,,,133.1676178,-86.989700317,
,,,133.4142151,-86.989700317,
,,,133.6608276,-80.589698792,
,,,133.9074402,-78.589698792,
,,,134.1540375,-80.589698792,
,,,134.4006500,-78.589698792,
,,,134.6472473,-84.589698792,
,,,134.8938599,-84.589698792,
,,,135.1404724,-74.989700317,
,,,135.3870697,-73.389701843,
,,,135.6336823,-73.389701843,
,,,135.8802948,-76.189697266,
,,,136.1268921,-86.989700317,
,,,136.3735046,-86.989700317,
,,,136.6201019,-81.389701843,
,,,136.8667145,-80.589698792,
,,,137.1133270,-77.389701843,
,,,137.3599243,-80.589698792,
,,,137.6065369,-80.589698792,
,,,137.8531342,-84.589698792,
,,,138.0997467,-80.589698792,
,,,138.3463593,-80.589698792,
,,,138.5929565,-86.989700317,
,,,138.8395691,-81.389701843,
,,,139.0861816,-74.989700317,
,,,139.3327789,-74.589698792,
,,,139.5793915,-75.389701843,
,,,139.8259888,-78.589698792,
,,,140.0726013,-81.389701843,
,,,140.3192139,-86.989700317,
,,,140.5658112,-86.989700317,
,,,140.8124237,-86.989700317,
,,,141.0590210,-84.589698792,
,,,141.3056335,-80.589698792,
,,,141.5522461,-84.589698792,
,,,141.7988434,-86.989700317,
,,,142.0454559,-84.589698792,
,,,142.2920685,-86.989700317,
,,,142.5386658,-86.989700317,
,,,142.7852783,-86.989700317,
,,,143.0318756,-86.989700317,
,,,143.2784882,-86.989700317,
,,,143.5251007,-84.589698792,
,,,143.7716980,-80.589698792,
,,,144.0183105,-81.389701843,
,,,144.2649078,-80.589698792,
,,,144.5115204,-86.989700317,
,,,144.7581329,-86.989700317,
,,,145.0047302,-80.589698792,
,,,145.2513428,-76.189697266,
,,,145.4979553,-76.189697266,
,,,145.7445526,-76.189697266,
,,,145.9911652,-84.589698792,
,,,146.2377625,-86.989700317,
,,,146.4843750,-84.589698792,
,,,146.7309875,-86.989700317,
,,,146.9775848,-86.989700317,
,,,147.2241974,-86.989700317,
,,,147.4707947,-84.589698792,
,,,147.7174072,-84.589698792,
,,,147.9640198,-78.589698792,
,,,148.2106171,-80.589698792,
,,,148.45722961,-84.589698792,
,,,148.70384216,-86.989700317,
,,,148.95043945,-80.589698792,
,,,149.19705200,-74.989700317,
,,,149.44364929,-73.389701843,
,,,149.69026184,-74.589698792,
,,,149.93687439,-76.189697266,
,,,150.18347168,-80.589698792,
,,,150.43008423,-80.589698792,
,,,150.67669678,-86.989700317,
,,,150.92329407,-86.989700317,
,,,151.16990662,-86.989700317,
,,,151.41650391,-86.989700317,
,,,151.66311646,-86.989700317,
,,,151.90972900,-80.589698792,
,,,152.15632629,-80.589698792,
,,,152.40293884,-86.989700317,
,,,152.64953613,-86.989700317,
,,,152.89614868,-86.989700317,
,,,153.14276123,-84.589698792,
,,,153.38935852,-84.589698792,
,,,153.63597107,-86.989700317,
,,,153.88258362,-86.989700317,
,,,154.12918091,-86.989700317,
,,,154.37579346,-86.989700317,
,,,154.62239075,-86.989700317,
,,,154.86900330,-86.989700317,
,,,155.11561584,-84.589698792,
,,,155.36221313,-81.389701843,
,,,155.60882568,-80.589698792,
,,,155.85542297,-74.589698792,
,,,156.10203552,-74.589698792,
,,,156.34864807,-81.389701843,
,,,156.59524536,-86.989700317,
,,,156.84185791,-86.989700317,
,,,157.08847046,-86.989700317,
,,,157.33506775,-81.389701843,
,,,157.58168030,-84.589698792,
,,,157.82827759,-84.589698792,
,,,158.07489014,-86.989700317,
,,,158.32150269,-86.989700317,
,,,158.56809998,-86.989700317,
,,,158.81471252,-86.989700317,
,,,159.06130981,-78.589698792,
,,,159.30792236,-73.389701843,
,,,159.55453491,-72.589698792,
,,,159.80113220,-74.989700317,
,,,160.04774475,-78.589698792,
,,,160.29435730,-86.989700317,
,,,160.54095459,-86.989700317,
,,,160.78756714,-81.389701843,
