AliasingEffect/FFT data/1_C.csv

Record Length,1024,Points,0.0,-21.38969994,
Sample Interval,246.60669267E-3,Hz,246.60669267E-3,-18.5897007,
Trigger Point,0.0,Samples,493.213385344E-3,-25.38969994,
,,,739.820063114E-3,-86.989700317,
,,,986.426770687E-3,-86.989700317,
,,,1.2330334,-84.589698792,
Source,MATH,,1.4796401,-84.589698792,
Vertical Units,dB,,1.7262468,-81.389701843,
Vertical Scale,10.0000001,,1.9728535,-81.389701843,
Vertical Offset,-46.9897,,2.2194602,-84.589698792,
Horizontal Units,Hz,,2.4660668,-80.589698792,
Horizontal Scale,25.25252533,,2.7126737,-86.989700317,
Pt Fmt,Y,,2.95928025,-81.389701843,
Yzero,0.0,,3.20588708,-77.389701843,
,,,3.45249367,-81.389701843,
,,,3.69910049,-86.989700317,
Note,TDS 2012C - 9:38:46 PM   3/29/2026,,3.94570708,-86.989700317,
,,,4.19231367,-86.989700317,
,,,4.43892050,-86.989700317,
,,,4.68552732,-86.989700317,
,,,4.93213367,-86.989700317,
,,,5.17874050,-86.989700317,
,,,5.42534733,-86.989700317,
,,,5.67195415,-86.989700317,
,,,5.91856050,-81.389701843,
,,,6.16516733,-80.589698792,
,,,6.41177416,-80.589698792,
,,,6.65838051,-80.589698792,
,,,6.90498734,-80.589698792,
,,,7.15159416,-86.989700317,
,,,7.398200989,-86.989700317,
,,,7.644807339,-84.589698792,
,,,7.891414165,-76.189697266,
,,,8.138020515,-80.589698792,
,,,8.384627342,-76.189697266,
,,,8.631234169,-86.989700317,
,,,8.877840996,-66.989700317,
,,,9.124447823,-64.189697266,
,,,9.371054649,-46.18970108,
,,,9.617661476,-31.78969955,
,,,9.864267349,-28.98970032,
,,,10.1108742,-28.98970032,
,,,10.3574810,-31.38969994,
,,,10.6040878,-44.18970108,
,,,10.8506947,-61.389701843,
,,,11.0973015,-68.189697266,
,,,11.3439083,-76.189697266,
,,,11.5905142,-81.389701843,
,,,11.8371210,-84.589698792,
,,,12.0837278,-86.989700317,
,,,12.3303347,-86.989700317,
,,,12.5769415,-74.589698792,
,,,12.8235483,-74.989700317,
,,,13.0701551,-74.589698792,
,,,13.3167610,-78.589698792,
,,,13.5633678,-80.589698792,
,,,13.8099747,-86.989700317,
,,,14.0565815,-86.989700317,
,,,14.3031883,-86.989700317,
,,,14.5497952,-86.989700317,
,,,14.7964020,-84.589698792,
,,,15.0430079,-86.989700317,
,,,15.2896147,-86.989700317,
,,,15.5362215,-86.989700317,
,,,15.7828283,-86.989700317,
,,,16.0294342,-84.589698792,
,,,16.2760410,-84.589698792,
,,,16.5226479,-86.989700317,
,,,16.7692547,-84.589698792,
,,,17.0158615,-86.989700317,
,,,17.2624683,-81.389701843,
,,,17.5090752,-81.389701843,
,,,17.7556820,-84.589698792,
,,,18.0022888,-86.989700317,
,,,18.2488956,-84.589698792,
,,,18.4955025,-80.589698792,
,,,18.7421093,-77.389701843,
,,,18.9887161,-81.389701843,
,,,19.2353230,-86.989700317,
,,,19.4819279,-86.989700317,
,,,19.7285347,-73.389701843,
,,,19.9751415,-68.189697266,
,,,20.22174835,-67.389701843,
,,,20.46835518,-67.789703369,
,,,20.71496201,-74.589698792,
,,,20.96156883,-80.589698792,
,,,21.20817566,-78.589698792,
,,,21.45478249,-84.589698792,
,,,21.70138931,-86.989700317,
,,,21.94799614,-86.989700317,
,,,22.19460297,-86.989700317,
,,,22.44120979,-86.989700317,
,,,22.68781662,-86.989700317,
,,,22.93442154,-86.989700317,
,,,23.18102837,-86.989700317,
,,,23.42763519,-86.989700317,
,,,23.67424202,-78.589698792,
,,,23.92084885,-80.589698792,
,,,24.16745567,-81.389701843,
,,,24.41406250,-86.989700317,
,,,24.66066933,-86.989700317,
,,,24.90727615,-86.989700317,
,,,25.15388298,-86.989700317,
,,,25.40048981,-84.589698792,
,,,25.64709663,-86.989700317,
,,,25.89370346,-84.589698792,
,,,26.14031029,-80.589698792,
,,,26.38691521,-86.989700317,
,,,26.63352203,-84.589698792,
,,,26.88012886,-84.589698792,
,,,27.12673569,-78.589698792,
,,,27.37334251,-80.589698792,
,,,27.61994934,-80.589698792,
,,,27.86655617,-80.589698792,
,,,28.11316299,-80.589698792,
,,,28.35976982,-81.389701843,
,,,28.60637665,-80.589698792,
,,,28.85298347,-84.589698792,
,,,29.09959030,-84.589698792,
,,,29.34619713,-86.989700317,
,,,29.59280396,-80.589698792,
,,,29.83940887,-74.989700317,
,,,30.08601570,-71.789703369,
,,,30.33262253,-73.389701843,
,,,30.57922935,-74.989700317,
,,,30.82583618,-74.989700317,
,,,31.07244301,-80.589698792,
,,,31.31904984,-84.589698792,
,,,31.56565666,-86.989700317,
,,,31.81226349,-86.989700317,
,,,32.05886841,-86.989700317,
,,,32.30547714,-81.389701843,
,,,32.55208206,-84.589698792,
,,,32.79869080,-81.389701843,
,,,33.04529572,-86.989700317,
,,,33.29190445,-86.989700317,
,,,33.53850937,-86.989700317,
,,,33.78511810,-86.989700317,
,,,34.03172302,-84.589698792,
,,,34.27833176,-84.589698792,
,,,34.52493668,-86.989700317,
,,,34.77154541,-86.989700317,
,,,35.01815033,-84.589698792,
,,,35.26475525,-84.589698792,
,,,35.51136398,-77.789703369,
,,,35.75796890,-81.389701843,
,,,36.00457764,-81.389701843,
,,,36.25118256,-84.589698792,
,,,36.49779129,-86.989700317,
,,,36.74439621,-81.389701843,
,,,36.99100494,-77.389701843,
,,,37.23760986,-77.389701843,
,,,37.48421860,-80.589698792,
,,,37.73082352,-84.589698792,
,,,37.97743225,-86.989700317,
,,,38.22403717,-86.989700317,
,,,38.47064590,-86.989700317,
,,,38.71725082,-84.589698792,
,,,38.96385574,-84.589698792,
,,,39.21046448,-84.589698792,
,,,39.45706940,-84.589698792,
,,,39.70367813,-86.989700317,
,,,39.95028305,-76.189697266,
,,,40.19689178,-73.389701843,
,,,40.44349670,-73.389701843,
,,,40.69010544,-73.389701843,
,,,40.93671036,-80.589698792,
,,,41.18331909,-81.389701843,
,,,41.42992401,-80.589698792,
,,,41.67653275,-84.589698792,
,,,41.92313766,-81.389701843,
,,,42.16974258,-84.589698792,
,,,42.41635132,-86.989700317,
,,,42.66295624,-86.989700317,
,,,42.90956497,-84.589698792,
,,,43.15616989,-84.589698792,
,,,43.40277863,-81.389701843,
,,,43.64938354,-77.789703369,
,,,43.89599228,-76.189697266,
,,,44.14259720,-76.189697266,
,,,44.38920593,-80.589698792,
,,,44.63581085,-80.589698792,
,,,44.88241959,-78.589698792,
,,,45.12902451,-86.989700317,
,,,45.37563324,-86.989700317,
,,,45.62223816,-86.989700317,
,,,45.86884308,-86.989700317,
,,,46.11545181,-86.989700317,
,,,46.36205673,-80.589698792,
,,,46.60866547,-84.589698792,
,,,46.85527039,-81.389701843,
,,,47.10187912,-80.589698792,
,,,47.34848404,-80.589698792,
,,,47.59509277,-80.589698792,
,,,47.84169769,-84.589698792,
,,,48.08830643,-86.989700317,
,,,48.33491135,-86.989700317,
,,,48.58152008,-86.989700317,
,,,48.82812500,-84.589698792,
,,,49.07473373,-80.589698792,
,,,49.32133865,-84.589698792,
,,,49.56794357,-86.989700317,
,,,49.81455231,-86.989700317,
,,,50.06115723,-80.589698792,
,,,50.30776596,-80.589698792,
,,,50.55437088,-77.789703369,
,,,50.80097961,-77.389701843,
,,,51.04758453,-84.589698792,
,,,51.29419327,-86.989700317,
,,,51.54079819,-86.989700317,
,,,51.78740692,-86.989700317,
,,,52.03401184,-80.589698792,
,,,52.28062057,-75.389701843,
,,,52.52722549,-75.389701843,
,,,52.77383041,-77.389701843,
,,,53.02043915,-80.589698792,
,,,53.26704407,-86.989700317,
,,,53.51365280,-86.989700317,
,,,53.76025772,-86.989700317,
,,,54.00686646,-84.589698792,
,,,54.25347137,-80.589698792,
,,,54.50008011,-81.389701843,
,,,54.746685028,-81.389701843,
,,,54.993293762,-86.989700317,
,,,55.239898682,-86.989700317,
,,,55.486507416,-81.389701843,
,,,55.733112335,-81.389701843,
,,,55.979721069,-86.989700317,
,,,56.226325989,-81.389701843,
,,,56.472930908,-81.389701843,
,,,56.719539642,-80.589698792,
,,,56.966144562,-81.389701843,
,,,57.212753296,-78.589698792,
,,,57.459358215,-80.589698792,
,,,57.705966949,-81.389701843,
,,,57.952571869,-84.589698792,
,,,58.199180603,-86.989700317,
,,,58.445785522,-86.989700317,
,,,58.692394257,-86.989700317,
,,,58.938999176,-84.589698792,
,,,59.185607910,-84.589698792,
,,,59.432212830,-80.589698792,
,,,59.678817749,-81.389701843,
,,,59.925426483,-81.389701843,
,,,60.172031403,-80.589698792,
,,,60.418640137,-84.589698792,
,,,60.665245056,-86.989700317,
,,,60.911853790,-86.989700317,
,,,61.158458710,-81.389701843,
,,,61.405067444,-77.789703369,
,,,61.651672363,-80.589698792,
,,,61.898281097,-84.589698792,
,,,62.144886017,-84.589698792,
,,,62.391494751,-77.789703369,
,,,62.638099670,-81.389701843,
,,,62.884708405,-81.389701843,
,,,63.131313324,-86.989700317,
,,,63.377918243,-86.989700317,
,,,63.624526978,-84.589698792,
,,,63.871131897,-86.989700317,
,,,64.117736816,-81.389701843,
,,,64.364349365,-76.189697266,
,,,64.610954285,-76.189697266,
,,,64.857559204,-76.189697266,
,,,65.104164124,-81.389701843,
,,,65.350776672,-84.589698792,
,,,65.597381592,-86.989700317,
,,,65.843986511,-86.989700317,
,,,66.090591431,-84.589698792,
,,,66.337203979,-86.989700317,
,,,66.583808899,-84.589698792,
,,,66.830413818,-84.589698792,
,,,67.077018738,-86.989700317,
,,,67.323623657,-86.989700317,
,,,67.570236206,-81.389701843,
,,,67.816841125,-86.989700317,
,,,68.063446045,-84.589698792,
,,,68.310050964,-86.989700317,
,,,68.556663513,-80.589698792,
,,,68.803268433,-86.989700317,
,,,69.049873352,-81.389701843,
,,,69.296478271,-84.589698792,
,,,69.543090820,-86.989700317,
,,,69.789695740,-86.989700317,
,,,70.036300659,-86.989700317,
,,,70.282905579,-80.589698792,
,,,70.529510498,-78.589698792,
,,,70.776123047,-86.989700317,
,,,71.022727966,-86.989700317,
,,,71.269332886,-80.589698792,
,,,71.515937805,-80.589698792,
,,,71.762550354,-84.589698792,
,,,72.009155273,-86.989700317,
,,,72.255760193,-78.589698792,
,,,72.502365112,-76.189697266,
,,,72.748977661,-80.589698792,
,,,72.995582581,-86.989700317,
,,,73.242187500,-84.589698792,
,,,73.488792419,-86.989700317,
,,,73.735397339,-86.989700317,
,,,73.982009888,-86.989700317,
,,,74.228614807,-77.389701843,
,,,74.475219727,-70.989700317,
,,,74.721824646,-70.189697266,
,,,74.968437195,-70.189697266,
,,,75.215042114,-73.389701843,
,,,75.461647034,-81.389701843,
,,,75.708251953,-81.389701843,
,,,75.954864502,-80.589698792,
,,,76.201469421,-80.589698792,
,,,76.448074341,-84.589698792,
,,,76.694679260,-84.589698792,
,,,76.941291809,-80.589698792,
,,,77.187896729,-80.589698792,
,,,77.434501648,-81.389701843,
,,,77.681106567,-80.589698792,
,,,77.927711487,-81.389701843,
,,,78.174324036,-81.389701843,
,,,78.420928955,-81.389701843,
,,,78.667533875,-86.989700317,
,,,78.914138794,-86.989700317,
,,,79.160751343,-86.989700317,
,,,79.407356262,-84.589698792,
,,,79.653961182,-80.589698792,
,,,79.900566101,-80.589698792,
,,,80.147178650,-86.989700317,
,,,80.393783569,-84.589698792,
,,,80.640388489,-77.389701843,
,,,80.886993408,-80.589698792,
,,,81.133598328,-81.389701843,
,,,81.380210876,-84.589698792,
,,,81.626815796,-80.589698792,
,,,81.873420715,-84.589698792,
,,,82.120025635,-86.989700317,
,,,82.366638184,-86.989700317,
,,,82.613243103,-81.389701843,
,,,82.859848022,-81.389701843,
,,,83.106452942,-80.589698792,
,,,83.353065491,-80.589698792,
,,,83.599670410,-81.389701843,
,,,83.846275330,-77.789703369,
,,,84.092880249,-81.389701843,
,,,84.339485168,-72.189697266,
,,,84.586097717,-64.589698792,
,,,84.832702637,-62.989700317,
,,,85.079307556,-63.389701843,
,,,85.325912476,-67.789703369,
,,,85.572525024,-86.989700317,
,,,85.819129944,-86.989700317,
,,,86.065734863,-86.989700317,
,,,86.312339783,-84.589698792,
,,,86.558952332,-84.589698792,
,,,86.805557251,-80.589698792,
,,,87.052162170,-86.989700317,
,,,87.298767090,-86.989700317,
,,,87.545379639,-86.989700317,
,,,87.791984558,-80.589698792,
,,,88.038589478,-81.389701843,
,,,88.285194397,-86.989700317,
,,,88.531799316,-86.989700317,
,,,88.778411865,-86.989700317,
,,,89.025016785,-86.989700317,
,,,89.271621704,-84.589698792,
,,,89.518226624,-80.589698792,
,,,89.764839172,-80.589698792,
,,,90.011444092,-84.589698792,
,,,90.258049011,-84.589698792,
,,,90.504653931,-80.589698792,
,,,90.751266479,-81.389701843,
,,,90.997871399,-86.989700317,
,,,91.244476318,-86.989700317,
,,,91.491081238,-86.989700317,
,,,91.737686157,-80.589698792,
,,,91.984298706,-80.589698792,
,,,92.230903625,-77.389701843,
,,,92.477508545,-86.989700317,
,,,92.724113464,-86.989700317,
,,,92.970726013,-86.989700317,
,,,93.217330933,-86.989700317,
,,,93.463935852,-86.989700317,
,,,93.710540771,-86.989700317,
,,,93.957153320,-86.989700317,
,,,94.203758240,-84.589698792,
,,,94.450363159,-81.389701843,
,,,94.696968079,-68.189697266,
,,,94.943572998,-64.189697266,
,,,95.190185547,-63.789699554,
,,,95.436790466,-64.189697266,
,,,95.683395386,-76.189697266,
,,,95.930000305,-86.989700317,
,,,96.176612854,-86.989700317,
,,,96.423217773,-84.589698792,
,,,96.669822693,-84.589698792,
,,,96.916427612,-84.589698792,
,,,97.163040161,-84.589698792,
,,,97.409645081,-86.989700317,
,,,97.656250000,-84.589698792,
,,,97.902854919,-78.589698792,
,,,98.149467468,-74.989700317,
,,,98.396072388,-78.589698792,
,,,98.642677307,-80.589698792,
,,,98.889282227,-80.589698792,
,,,99.135887146,-86.989700317,
,,,99.382499695,-86.989700317,
,,,99.629104614,-86.989700317,
,,,99.875709534,-86.989700317,
,,,100.1223145,-86.989700317,
,,,100.3689270,-86.989700317,
,,,100.6155319,-86.989700317,
,,,100.8621368,-86.989700317,
,,,101.1087418,-84.589698792,
,,,101.3553543,-77.389701843,
,,,101.6019592,-77.389701843,
,,,101.8485641,-80.589698792,
,,,102.0951691,-84.589698792,
,,,102.3417740,-80.589698792,
,,,102.5883865,-76.189697266,
,,,102.8349915,-76.189697266,
,,,103.0815964,-78.589698792,
,,,103.3282013,-80.589698792,
,,,103.5748138,-84.589698792,
,,,103.8214188,-71.789703369,
,,,104.0680237,-69.389701843,
,,,104.3146286,-54.18970108,
,,,104.5612411,-32.98970032,
,,,104.8078461,-28.18969917,
,,,105.0544510,-28.18969917,
,,,105.3010559,-29.38969994,
,,,105.5476608,-38.58969879,
,,,105.7942734,-60.589698792,
,,,106.0408783,-72.989700317,
,,,106.2874832,-73.389701843,
,,,106.5340881,-86.989700317,
,,,106.7807007,-80.589698792,
,,,107.0273056,-86.989700317,
,,,107.2739105,-80.589698792,
,,,107.5205154,-81.389701843,
,,,107.7671280,-81.389701843,
,,,108.0137329,-86.989700317,
,,,108.2603378,-86.989700317,
,,,108.5069427,-84.589698792,
,,,108.7535477,-86.989700317,
,,,109.0001602,-86.989700317,
,,,109.2467651,-86.989700317,
,,,109.4933701,-86.989700317,
,,,109.7399750,-86.989700317,
,,,109.9865875,-84.589698792,
,,,110.2331924,-86.989700317,
,,,110.4797974,-84.589698792,
,,,110.7264023,-80.589698792,
,,,110.9730148,-80.589698792,
,,,111.2196198,-77.789703369,
,,,111.4662247,-86.989700317,
,,,111.7128296,-86.989700317,
,,,111.9594421,-86.989700317,
,,,112.2060471,-86.989700317,
,,,112.4526520,-86.989700317,
,,,112.6992569,-86.989700317,
,,,112.9458618,-86.989700317,
,,,113.1924744,-86.989700317,
,,,113.4390793,-86.989700317,
,,,113.6856842,-86.989700317,
,,,113.9322891,-84.589698792,
,,,114.1789017,-86.989700317,
,,,114.4255066,-80.589698792,
,,,114.6721115,-64.189697266,
,,,114.9187164,-60.589698792,
,,,115.1653290,-59.789699554,
,,,115.4119339,-61.789699554,
,,,115.6585388,-70.989700317,
,,,115.9051437,-84.589698792,
,,,116.1517487,-84.589698792,
,,,116.3983612,-86.989700317,
,,,116.6449661,-86.989700317,
,,,116.8915710,-86.989700317,
,,,117.1381760,-86.989700317,
,,,117.3847885,-80.589698792,
,,,117.6313934,-80.589698792,
,,,117.8779984,-80.589698792,
,,,118.1246033,-81.389701843,
,,,118.3712158,-86.989700317,
,,,118.6178207,-84.589698792,
,,,118.8644257,-86.989700317,
,,,119.1110306,-86.989700317,
,,,119.3576355,-86.989700317,
,,,119.6042480,-86.989700317,
,,,119.8508530,-86.989700317,
,,,120.0974579,-86.989700317,
,,,120.3440628,-86.989700317,
,,,120.5906754,-86.989700317,
,,,120.8372803,-84.589698792,
,,,121.0838852,-86.989700317,
,,,121.3304901,-84.589698792,
,,,121.5771027,-86.989700317,
,,,121.8237076,-81.389701843,
,,,122.0703125,-80.589698792,
,,,122.3169174,-81.389701843,
,,,122.5635300,-81.389701843,
,,,122.8101349,-86.989700317,
,,,123.0567398,-86.989700317,
,,,123.3033447,-84.589698792,
,,,123.5499496,-76.189697266,
,,,123.7965622,-78.589698792,
,,,124.0431671,-84.589698792,
,,,124.2897720,-86.989700317,
,,,124.5363770,-86.989700317,
,,,124.7829895,-73.389701843,
,,,125.0295944,-70.589698792,
,,,125.2761993,-68.189697266,
,,,125.5228043,-70.189697266,
,,,125.7694168,-76.189697266,
,,,126.0160217,-84.589698792,
,,,126.2626266,-86.989700317,
,,,126.5092316,-86.989700317,
,,,126.7558365,-86.989700317,
,,,127.0024490,-84.589698792,
,,,127.2490540,-81.389701843,
,,,127.4956589,-77.389701843,
,,,127.7422638,-76.189697266,
,,,127.9888763,-76.189697266,
,,,128.2354736,-77.389701843,
,,,128.4820862,-80.589698792,
,,,128.7286987,-84.589698792,
,,,128.9752960,-80.589698792,
,,,129.2219086,-81.389701843,
,,,129.4685211,-81.389701843,
,,,129.7151184,-86.989700317,
,,,129.9617310,-86.989700317,
,,,130.2083282,-86.989700317,
,,,130.4549408,-86.989700317,
,,,130.7015533,-86.989700317,
,,,130.9481506,-86.989700317,
,,,131.1947632,-86.989700317,
,,,131.4413605,-84.589698792,
,,,131.6879730,-86.989700317,
,,,131.9345856,-86.989700317,
,,,132.1811829,-86.989700317,
,,,132.4277954,-84.589698792,
,,,132.6744080,-78.589698792,
,,,132.9210052,-81.389701843,
,,,133.1676178,-77.389701843,
,,,133.4142151,-80.589698792,
,,,133.6608276,-84.589698792,
,,,133.9074402,-86.989700317,
,,,134.1540375,-86.989700317,
,,,134.4006500,-86.989700317,
,,,134.6472473,-86.989700317,
,,,134.8938599,-77.789703369,
,,,135.1404724,-71.389701843,
,,,135.3870697,-70.589698792,
,,,135.6336823,-71.789703369,
,,,135.8802948,-77.389701843,
,,,136.1268921,-86.989700317,
,,,136.3735046,-86.989700317,
,,,136.6201019,-86.989700317,
,,,136.8667145,-86.989700317,
,,,137.1133270,-80.589698792,
,,,137.3599243,-80.589698792,
,,,137.6065369,-84.589698792,
,,,137.8531342,-84.589698792,
,,,138.0997467,-80.589698792,
,,,138.3463593,-86.989700317,
,,,138.5929565,-86.989700317,
,,,138.8395691,-86.989700317,
,,,139.0861816,-84.589698792,
,,,139.3327789,-86.989700317,
,,,139.5793915,-86.989700317,
,,,139.8259888,-86.989700317,
,,,140.0726013,-81.389701843,
,,,140.3192139,-81.389701843,
,,,140.5658112,-84.589698792,
,,,140.8124237,-84.589698792,
,,,141.0590210,-80.589698792,
,,,141.3056335,-86.989700317,
,,,141.5522461,-81.389701843,
,,,141.7988434,-86.989700317,
,,,142.0454559,-86.989700317,
,,,142.2920685,-86.989700317,
,,,142.5386658,-86.989700317,
,,,142.7852783,-86.989700317,
,,,143.0318756,-86.989700317,
,,,143.2784882,-80.589698792,
,,,143.5251007,-77.789703369,
,,,143.7716980,-77.789703369,
,,,144.0183105,-77.789703369,
,,,144.2649078,-86.989700317,
,,,144.5115204,-86.989700317,
,,,144.7581329,-84.589698792,
,,,145.0047302,-80.589698792,
,,,145.2513428,-76.189697266,
,,,145.4979553,-74.989700317,
,,,145.7445526,-76.189697266,
,,,145.9911652,-81.389701843,
,,,146.2377625,-80.589698792,
,,,146.4843750,-80.589698792,
,,,146.7309875,-86.989700317,
,,,146.9775848,-80.589698792,
,,,147.2241974,-77.389701843,
,,,147.4707947,-75.389701843,
,,,147.7174072,-77.789703369,
,,,147.9640198,-80.589698792,
,,,148.2106171,-84.589698792,
,,,148.45722961,-84.589698792,
,,,148.70384216,-84.589698792,
,,,148.95043945,-76.189697266,
,,,149.19705200,-76.189697266,
,,,149.44364929,-73.389701843,
,,,149.69026184,-76.189697266,
,,,149.93687439,-84.589698792,
,,,150.18347168,-86.989700317,
,,,150.43008423,-86.989700317,
,,,150.67669678,-80.589698792,
,,,150.92329407,-81.389701843,
,,,151.16990662,-84.589698792,
,,,151.41650391,-84.589698792,
,,,151.66311646,-81.389701843,
,,,151.90972900,-84.589698792,
,,,152.15632629,-86.989700317,
,,,152.40293884,-84.589698792,
,,,152.64953613,-81.389701843,
,,,152.89614868,-86.989700317,
,,,153.14276123,-84.589698792,
,,,153.38935852,-80.589698792,
,,,153.63597107,-80.589698792,
,,,153.88258362,-80.589698792,
,,,154.12918091,-81.389701843,
,,,154.37579346,-86.989700317,
,,,154.62239075,-86.989700317,
,,,154.86900330,-84.589698792,
,,,155.11561584,-77.789703369,
,,,155.36221313,-74.989700317,
,,,155.60882568,-73.389701843,
,,,155.85542297,-74.989700317,
,,,156.10203552,-80.589698792,
,,,156.34864807,-84.589698792,
,,,156.59524536,-84.589698792,
,,,156.84185791,-84.589698792,
,,,157.08847046,-86.989700317,
,,,157.33506775,-86.989700317,
,,,157.58168030,-86.989700317,
,,,157.82827759,-86.989700317,
,,,158.07489014,-86.989700317,
,,,158.32150269,-84.589698792,
,,,158.56809998,-84.589698792,
,,,158.81471252,-86.989700317,
,,,159.06130981,-81.389701843,
,,,159.30792236,-74.989700317,
,,,159.55453491,-74.989700317,
,,,159.80113220,-78.589698792,
,,,160.04774475,-84.589698792,
,,,160.29435730,-81.389701843,
,,,160.54095459,-81.389701843,
,,,160.78756714,-80.589698792,
