AliasingEffect/FFT data/2_C.csv

Record Length,1024,Points,0.0,-20.98970032,
Sample Interval,246.60669267E-3,Hz,246.60669267E-3,-18.5897007,
Trigger Point,0.0,Samples,493.213385344E-3,-25.38969994,
,,,739.820063114E-3,-86.989700317,
,,,986.426770687E-3,-81.389701843,
,,,1.2330334,-80.589698792,
Source,MATH,,1.4796401,-80.589698792,
Vertical Units,dB,,1.7262468,-86.989700317,
Vertical Scale,10.0000001,,1.9728535,-86.989700317,
Vertical Offset,-46.9897,,2.2194602,-86.989700317,
Horizontal Units,Hz,,2.4660668,-86.989700317,
Horizontal Scale,25.25252533,,2.7126737,-86.989700317,
Pt Fmt,Y,,2.95928025,-86.989700317,
Yzero,0.0,,3.20588708,-86.989700317,
,,,3.45249367,-86.989700317,
,,,3.69910049,-86.989700317,
Note,TDS 2012C - 9:36:07 PM   3/29/2026,,3.94570708,-86.989700317,
,,,4.19231367,-86.989700317,
,,,4.43892050,-84.589698792,
,,,4.68552732,-86.989700317,
,,,4.93213367,-84.589698792,
,,,5.17874050,-84.589698792,
,,,5.42534733,-86.989700317,
,,,5.67195415,-86.989700317,
,,,5.91856050,-86.989700317,
,,,6.16516733,-86.989700317,
,,,6.41177416,-84.589698792,
,,,6.65838051,-86.989700317,
,,,6.90498734,-86.989700317,
,,,7.15159416,-86.989700317,
,,,7.398200989,-86.989700317,
,,,7.644807339,-86.989700317,
,,,7.891414165,-86.989700317,
,,,8.138020515,-77.389701843,
,,,8.384627342,-86.989700317,
,,,8.631234169,-73.389701843,
,,,8.877840996,-73.389701843,
,,,9.124447823,-62.989700317,
,,,9.371054649,-47.38970184,
,,,9.617661476,-32.58969879,
,,,9.864267349,-29.78969955,
,,,10.1108742,-29.78969955,
,,,10.3574810,-32.18970108,
,,,10.6040878,-44.58969879,
,,,10.8506947,-61.389701843,
,,,11.0973015,-71.789703369,
,,,11.3439083,-73.389701843,
,,,11.5905142,-86.989700317,
,,,11.8371210,-80.589698792,
,,,12.0837278,-84.589698792,
,,,12.3303347,-86.989700317,
,,,12.5769415,-84.589698792,
,,,12.8235483,-84.589698792,
,,,13.0701551,-86.989700317,
,,,13.3167610,-86.989700317,
,,,13.5633678,-84.589698792,
,,,13.8099747,-80.589698792,
,,,14.0565815,-80.589698792,
,,,14.3031883,-84.589698792,
,,,14.5497952,-84.589698792,
,,,14.7964020,-86.989700317,
,,,15.0430079,-86.989700317,
,,,15.2896147,-86.989700317,
,,,15.5362215,-84.589698792,
,,,15.7828283,-84.589698792,
,,,16.0294342,-80.589698792,
,,,16.2760410,-86.989700317,
,,,16.5226479,-80.589698792,
,,,16.7692547,-84.589698792,
,,,17.0158615,-86.989700317,
,,,17.2624683,-86.989700317,
,,,17.5090752,-80.589698792,
,,,17.7556820,-80.589698792,
,,,18.0022888,-84.589698792,
,,,18.2488956,-81.389701843,
,,,18.4955025,-86.989700317,
,,,18.7421093,-86.989700317,
,,,18.9887161,-86.989700317,
,,,19.2353230,-84.589698792,
,,,19.4819279,-80.589698792,
,,,19.7285347,-84.589698792,
,,,19.9751415,-77.389701843,
,,,20.22174835,-77.389701843,
,,,20.46835518,-80.589698792,
,,,20.71496201,-86.989700317,
,,,20.96156883,-84.589698792,
,,,21.20817566,-76.189697266,
,,,21.45478249,-80.589698792,
,,,21.70138931,-81.389701843,
,,,21.94799614,-86.989700317,
,,,22.19460297,-84.589698792,
,,,22.44120979,-80.589698792,
,,,22.68781662,-81.389701843,
,,,22.93442154,-84.589698792,
,,,23.18102837,-86.989700317,
,,,23.42763519,-86.989700317,
,,,23.67424202,-86.989700317,
,,,23.92084885,-86.989700317,
,,,24.16745567,-86.989700317,
,,,24.41406250,-84.589698792,
,,,24.66066933,-80.589698792,
,,,24.90727615,-80.589698792,
,,,25.15388298,-86.989700317,
,,,25.40048981,-86.989700317,
,,,25.64709663,-86.989700317,
,,,25.89370346,-86.989700317,
,,,26.14031029,-86.989700317,
,,,26.38691521,-86.989700317,
,,,26.63352203,-84.589698792,
,,,26.88012886,-84.589698792,
,,,27.12673569,-86.989700317,
,,,27.37334251,-86.989700317,
,,,27.61994934,-84.589698792,
,,,27.86655617,-84.589698792,
,,,28.11316299,-84.589698792,
,,,28.35976982,-84.589698792,
,,,28.60637665,-86.989700317,
,,,28.85298347,-86.989700317,
,,,29.09959030,-86.989700317,
,,,29.34619713,-86.989700317,
,,,29.59280396,-78.589698792,
,,,29.83940887,-74.589698792,
,,,30.08601570,-73.389701843,
,,,30.33262253,-76.189697266,
,,,30.57922935,-86.989700317,
,,,30.82583618,-86.989700317,
,,,31.07244301,-86.989700317,
,,,31.31904984,-84.589698792,
,,,31.56565666,-86.989700317,
,,,31.81226349,-84.589698792,
,,,32.05886841,-84.589698792,
,,,32.30547714,-86.989700317,
,,,32.55208206,-81.389701843,
,,,32.79869080,-86.989700317,
,,,33.04529572,-86.989700317,
,,,33.29190445,-86.989700317,
,,,33.53850937,-86.989700317,
,,,33.78511810,-86.989700317,
,,,34.03172302,-86.989700317,
,,,34.27833176,-86.989700317,
,,,34.52493668,-86.989700317,
,,,34.77154541,-86.989700317,
,,,35.01815033,-86.989700317,
,,,35.26475525,-86.989700317,
,,,35.51136398,-86.989700317,
,,,35.75796890,-86.989700317,
,,,36.00457764,-81.389701843,
,,,36.25118256,-86.989700317,
,,,36.49779129,-81.389701843,
,,,36.74439621,-86.989700317,
,,,36.99100494,-86.989700317,
,,,37.23760986,-80.589698792,
,,,37.48421860,-80.589698792,
,,,37.73082352,-80.589698792,
,,,37.97743225,-80.589698792,
,,,38.22403717,-81.389701843,
,,,38.47064590,-81.389701843,
,,,38.71725082,-84.589698792,
,,,38.96385574,-86.989700317,
,,,39.21046448,-86.989700317,
,,,39.45706940,-86.989700317,
,,,39.70367813,-86.989700317,
,,,39.95028305,-86.989700317,
,,,40.19689178,-86.989700317,
,,,40.44349670,-86.989700317,
,,,40.69010544,-86.989700317,
,,,40.93671036,-84.589698792,
,,,41.18331909,-84.589698792,
,,,41.42992401,-86.989700317,
,,,41.67653275,-84.589698792,
,,,41.92313766,-86.989700317,
,,,42.16974258,-86.989700317,
,,,42.41635132,-86.989700317,
,,,42.66295624,-86.989700317,
,,,42.90956497,-86.989700317,
,,,43.15616989,-86.989700317,
,,,43.40277863,-86.989700317,
,,,43.64938354,-86.989700317,
,,,43.89599228,-80.589698792,
,,,44.14259720,-80.589698792,
,,,44.38920593,-80.589698792,
,,,44.63581085,-84.589698792,
,,,44.88241959,-86.989700317,
,,,45.12902451,-80.589698792,
,,,45.37563324,-80.589698792,
,,,45.62223816,-80.589698792,
,,,45.86884308,-78.589698792,
,,,46.11545181,-80.589698792,
,,,46.36205673,-84.589698792,
,,,46.60866547,-84.589698792,
,,,46.85527039,-84.589698792,
,,,47.10187912,-80.589698792,
,,,47.34848404,-81.389701843,
,,,47.59509277,-84.589698792,
,,,47.84169769,-86.989700317,
,,,48.08830643,-84.589698792,
,,,48.33491135,-84.589698792,
,,,48.58152008,-84.589698792,
,,,48.82812500,-86.989700317,
,,,49.07473373,-86.989700317,
,,,49.32133865,-84.589698792,
,,,49.56794357,-86.989700317,
,,,49.81455231,-84.589698792,
,,,50.06115723,-86.989700317,
,,,50.30776596,-86.989700317,
,,,50.55437088,-86.989700317,
,,,50.80097961,-84.589698792,
,,,51.04758453,-84.589698792,
,,,51.29419327,-84.589698792,
,,,51.54079819,-81.389701843,
,,,51.78740692,-80.589698792,
,,,52.03401184,-80.589698792,
,,,52.28062057,-81.389701843,
,,,52.52722549,-80.589698792,
,,,52.77383041,-86.989700317,
,,,53.02043915,-86.989700317,
,,,53.26704407,-80.589698792,
,,,53.51365280,-86.989700317,
,,,53.76025772,-86.989700317,
,,,54.00686646,-86.989700317,
,,,54.25347137,-84.589698792,
,,,54.50008011,-84.589698792,
,,,54.746685028,-86.989700317,
,,,54.993293762,-84.589698792,
,,,55.239898682,-86.989700317,
,,,55.486507416,-86.989700317,
,,,55.733112335,-86.989700317,
,,,55.979721069,-86.989700317,
,,,56.226325989,-84.589698792,
,,,56.472930908,-84.589698792,
,,,56.719539642,-84.589698792,
,,,56.966144562,-81.389701843,
,,,57.212753296,-86.989700317,
,,,57.459358215,-86.989700317,
,,,57.705966949,-84.589698792,
,,,57.952571869,-84.589698792,
,,,58.199180603,-84.589698792,
,,,58.445785522,-84.589698792,
,,,58.692394257,-86.989700317,
,,,58.938999176,-86.989700317,
,,,59.185607910,-84.589698792,
,,,59.432212830,-80.589698792,
,,,59.678817749,-80.589698792,
,,,59.925426483,-81.389701843,
,,,60.172031403,-80.589698792,
,,,60.418640137,-81.389701843,
,,,60.665245056,-81.389701843,
,,,60.911853790,-81.389701843,
,,,61.158458710,-81.389701843,
,,,61.405067444,-80.589698792,
,,,61.651672363,-86.989700317,
,,,61.898281097,-86.989700317,
,,,62.144886017,-86.989700317,
,,,62.391494751,-84.589698792,
,,,62.638099670,-81.389701843,
,,,62.884708405,-86.989700317,
,,,63.131313324,-84.589698792,
,,,63.377918243,-86.989700317,
,,,63.624526978,-86.989700317,
,,,63.871131897,-86.989700317,
,,,64.117736816,-86.989700317,
,,,64.364349365,-86.989700317,
,,,64.610954285,-84.589698792,
,,,64.857559204,-86.989700317,
,,,65.104164124,-86.989700317,
,,,65.350776672,-81.389701843,
,,,65.597381592,-84.589698792,
,,,65.843986511,-86.989700317,
,,,66.090591431,-86.989700317,
,,,66.337203979,-86.989700317,
,,,66.583808899,-86.989700317,
,,,66.830413818,-86.989700317,
,,,67.077018738,-86.989700317,
,,,67.323623657,-86.989700317,
,,,67.570236206,-86.989700317,
,,,67.816841125,-86.989700317,
,,,68.063446045,-84.589698792,
,,,68.310050964,-84.589698792,
,,,68.556663513,-86.989700317,
,,,68.803268433,-86.989700317,
,,,69.049873352,-86.989700317,
,,,69.296478271,-84.589698792,
,,,69.543090820,-86.989700317,
,,,69.789695740,-86.989700317,
,,,70.036300659,-86.989700317,
,,,70.282905579,-81.389701843,
,,,70.529510498,-81.389701843,
,,,70.776123047,-86.989700317,
,,,71.022727966,-86.989700317,
,,,71.269332886,-84.589698792,
,,,71.515937805,-86.989700317,
,,,71.762550354,-86.989700317,
,,,72.009155273,-81.389701843,
,,,72.255760193,-84.589698792,
,,,72.502365112,-86.989700317,
,,,72.748977661,-84.589698792,
,,,72.995582581,-84.589698792,
,,,73.242187500,-86.989700317,
,,,73.488792419,-86.989700317,
,,,73.735397339,-84.589698792,
,,,73.982009888,-80.589698792,
,,,74.228614807,-86.989700317,
,,,74.475219727,-80.589698792,
,,,74.721824646,-81.389701843,
,,,74.968437195,-86.989700317,
,,,75.215042114,-84.589698792,
,,,75.461647034,-86.989700317,
,,,75.708251953,-86.989700317,
,,,75.954864502,-86.989700317,
,,,76.201469421,-86.989700317,
,,,76.448074341,-86.989700317,
,,,76.694679260,-86.989700317,
,,,76.941291809,-84.589698792,
,,,77.187896729,-84.589698792,
,,,77.434501648,-86.989700317,
,,,77.681106567,-86.989700317,
,,,77.927711487,-84.589698792,
,,,78.174324036,-86.989700317,
,,,78.420928955,-86.989700317,
,,,78.667533875,-86.989700317,
,,,78.914138794,-84.589698792,
,,,79.160751343,-86.989700317,
,,,79.407356262,-86.989700317,
,,,79.653961182,-86.989700317,
,,,79.900566101,-86.989700317,
,,,80.147178650,-81.389701843,
,,,80.393783569,-81.389701843,
,,,80.640388489,-80.589698792,
,,,80.886993408,-84.589698792,
,,,81.133598328,-86.989700317,
,,,81.380210876,-86.989700317,
,,,81.626815796,-80.589698792,
,,,81.873420715,-78.589698792,
,,,82.120025635,-76.189697266,
,,,82.366638184,-84.589698792,
,,,82.613243103,-86.989700317,
,,,82.859848022,-86.989700317,
,,,83.106452942,-84.589698792,
,,,83.353065491,-86.989700317,
,,,83.599670410,-86.989700317,
,,,83.846275330,-86.989700317,
,,,84.092880249,-86.989700317,
,,,84.339485168,-80.589698792,
,,,84.586097717,-80.589698792,
,,,84.832702637,-84.589698792,
,,,85.079307556,-86.989700317,
,,,85.325912476,-81.389701843,
,,,85.572525024,-86.989700317,
,,,85.819129944,-84.589698792,
,,,86.065734863,-81.389701843,
,,,86.312339783,-81.389701843,
,,,86.558952332,-80.589698792,
,,,86.805557251,-84.589698792,
,,,87.052162170,-84.589698792,
,,,87.298767090,-80.589698792,
,,,87.545379639,-86.989700317,
,,,87.791984558,-86.989700317,
,,,88.038589478,-86.989700317,
,,,88.285194397,-86.989700317,
,,,88.531799316,-86.989700317,
,,,88.778411865,-81.389701843,
,,,89.025016785,-86.989700317,
,,,89.271621704,-86.989700317,
,,,89.518226624,-84.589698792,
,,,89.764839172,-86.989700317,
,,,90.011444092,-86.989700317,
,,,90.258049011,-84.589698792,
,,,90.504653931,-86.989700317,
,,,90.751266479,-81.389701843,
,,,90.997871399,-81.389701843,
,,,91.244476318,-86.989700317,
,,,91.491081238,-86.989700317,
,,,91.737686157,-84.589698792,
,,,91.984298706,-86.989700317,
,,,92.230903625,-86.989700317,
,,,92.477508545,-86.989700317,
,,,92.724113464,-86.989700317,
,,,92.970726013,-86.989700317,
,,,93.217330933,-84.589698792,
,,,93.463935852,-86.989700317,
,,,93.710540771,-80.589698792,
,,,93.957153320,-86.989700317,
,,,94.203758240,-86.989700317,
,,,94.450363159,-86.989700317,
,,,94.696968079,-77.389701843,
,,,94.943572998,-74.989700317,
,,,95.190185547,-73.389701843,
,,,95.436790466,-77.789703369,
,,,95.683395386,-84.589698792,
,,,95.930000305,-86.989700317,
,,,96.176612854,-84.589698792,
,,,96.423217773,-86.989700317,
,,,96.669822693,-86.989700317,
,,,96.916427612,-86.989700317,
,,,97.163040161,-86.989700317,
,,,97.409645081,-86.989700317,
,,,97.656250000,-86.989700317,
,,,97.902854919,-86.989700317,
,,,98.149467468,-86.989700317,
,,,98.396072388,-84.589698792,
,,,98.642677307,-86.989700317,
,,,98.889282227,-86.989700317,
,,,99.135887146,-86.989700317,
,,,99.382499695,-86.989700317,
,,,99.629104614,-84.589698792,
,,,99.875709534,-86.989700317,
,,,100.1223145,-86.989700317,
,,,100.3689270,-84.589698792,
,,,100.6155319,-84.589698792,
,,,100.8621368,-86.989700317,
,,,101.1087418,-86.989700317,
,,,101.3553543,-86.989700317,
,,,101.6019592,-86.989700317,
,,,101.8485641,-86.989700317,
,,,102.0951691,-86.989700317,
,,,102.3417740,-80.589698792,
,,,102.5883865,-80.589698792,
,,,102.8349915,-84.589698792,
,,,103.0815964,-84.589698792,
,,,103.3282013,-84.589698792,
,,,103.5748138,-80.589698792,
,,,103.8214188,-86.989700317,
,,,104.0680237,-77.389701843,
,,,104.3146286,-67.389701843,
,,,104.5612411,-44.98970032,
,,,104.8078461,-40.58969879,
,,,105.0544510,-40.18970108,
,,,105.3010559,-41.38970184,
,,,105.5476608,-50.58969879,
,,,105.7942734,-71.789703369,
,,,106.0408783,-86.989700317,
,,,106.2874832,-80.589698792,
,,,106.5340881,-86.989700317,
,,,106.7807007,-86.989700317,
,,,107.0273056,-86.989700317,
,,,107.2739105,-84.589698792,
,,,107.5205154,-86.989700317,
,,,107.7671280,-86.989700317,
,,,108.0137329,-84.589698792,
,,,108.2603378,-80.589698792,
,,,108.5069427,-80.589698792,
,,,108.7535477,-77.789703369,
,,,109.0001602,-80.589698792,
,,,109.2467651,-78.589698792,
,,,109.4933701,-86.989700317,
,,,109.7399750,-86.989700317,
,,,109.9865875,-86.989700317,
,,,110.2331924,-77.789703369,
,,,110.4797974,-86.989700317,
,,,110.7264023,-86.989700317,
,,,110.9730148,-86.989700317,
,,,111.2196198,-81.389701843,
,,,111.4662247,-80.589698792,
,,,111.7128296,-84.589698792,
,,,111.9594421,-86.989700317,
,,,112.2060471,-78.589698792,
,,,112.4526520,-80.589698792,
,,,112.6992569,-81.389701843,
,,,112.9458618,-86.989700317,
,,,113.1924744,-86.989700317,
,,,113.4390793,-86.989700317,
,,,113.6856842,-86.989700317,
,,,113.9322891,-86.989700317,
,,,114.1789017,-81.389701843,
,,,114.4255066,-80.589698792,
,,,114.6721115,-77.789703369,
,,,114.9187164,-77.389701843,
,,,115.1653290,-80.589698792,
,,,115.4119339,-81.389701843,
,,,115.6585388,-84.589698792,
,,,115.9051437,-86.989700317,
,,,116.1517487,-86.989700317,
,,,116.3983612,-84.589698792,
,,,116.6449661,-86.989700317,
,,,116.8915710,-84.589698792,
,,,117.1381760,-80.589698792,
,,,117.3847885,-84.589698792,
,,,117.6313934,-86.989700317,
,,,117.8779984,-86.989700317,
,,,118.1246033,-81.389701843,
,,,118.3712158,-84.589698792,
,,,118.6178207,-84.589698792,
,,,118.8644257,-80.589698792,
,,,119.1110306,-86.989700317,
,,,119.3576355,-84.589698792,
,,,119.6042480,-84.589698792,
,,,119.8508530,-86.989700317,
,,,120.0974579,-86.989700317,
,,,120.3440628,-86.989700317,
,,,120.5906754,-86.989700317,
,,,120.8372803,-84.589698792,
,,,121.0838852,-86.989700317,
,,,121.3304901,-86.989700317,
,,,121.5771027,-86.989700317,
,,,121.8237076,-86.989700317,
,,,122.0703125,-86.989700317,
,,,122.3169174,-84.589698792,
,,,122.5635300,-86.989700317,
,,,122.8101349,-86.989700317,
,,,123.0567398,-86.989700317,
,,,123.3033447,-86.989700317,
,,,123.5499496,-86.989700317,
,,,123.7965622,-86.989700317,
,,,124.0431671,-84.589698792,
,,,124.2897720,-86.989700317,
,,,124.5363770,-80.589698792,
,,,124.7829895,-80.589698792,
,,,125.0295944,-81.389701843,
,,,125.2761993,-86.989700317,
,,,125.5228043,-86.989700317,
,,,125.7694168,-84.589698792,
,,,126.0160217,-86.989700317,
,,,126.2626266,-86.989700317,
,,,126.5092316,-86.989700317,
,,,126.7558365,-86.989700317,
,,,127.0024490,-86.989700317,
,,,127.2490540,-86.989700317,
,,,127.4956589,-84.589698792,
,,,127.7422638,-84.589698792,
,,,127.9888763,-86.989700317,
,,,128.2354736,-84.589698792,
,,,128.4820862,-84.589698792,
,,,128.7286987,-86.989700317,
,,,128.9752960,-86.989700317,
,,,129.2219086,-86.989700317,
,,,129.4685211,-84.589698792,
,,,129.7151184,-80.589698792,
,,,129.9617310,-77.389701843,
,,,130.2083282,-77.389701843,
,,,130.4549408,-81.389701843,
,,,130.7015533,-84.589698792,
,,,130.9481506,-84.589698792,
,,,131.1947632,-86.989700317,
,,,131.4413605,-86.989700317,
,,,131.6879730,-86.989700317,
,,,131.9345856,-86.989700317,
,,,132.1811829,-86.989700317,
,,,132.4277954,-86.989700317,
,,,132.6744080,-86.989700317,
,,,132.9210052,-86.989700317,
,,,133.1676178,-86.989700317,
,,,133.4142151,-86.989700317,
,,,133.6608276,-84.589698792,
,,,133.9074402,-86.989700317,
,,,134.1540375,-86.989700317,
,,,134.4006500,-86.989700317,
,,,134.6472473,-86.989700317,
,,,134.8938599,-86.989700317,
,,,135.1404724,-86.989700317,
,,,135.3870697,-86.989700317,
,,,135.6336823,-84.589698792,
,,,135.8802948,-84.589698792,
,,,136.1268921,-86.989700317,
,,,136.3735046,-86.989700317,
,,,136.6201019,-78.589698792,
,,,136.8667145,-84.589698792,
,,,137.1133270,-86.989700317,
,,,137.3599243,-80.589698792,
,,,137.6065369,-77.789703369,
,,,137.8531342,-77.789703369,
,,,138.0997467,-81.389701843,
,,,138.3463593,-86.989700317,
,,,138.5929565,-84.589698792,
,,,138.8395691,-86.989700317,
,,,139.0861816,-86.989700317,
,,,139.3327789,-84.589698792,
,,,139.5793915,-86.989700317,
,,,139.8259888,-81.389701843,
,,,140.0726013,-84.589698792,
,,,140.3192139,-86.989700317,
,,,140.5658112,-86.989700317,
,,,140.8124237,-86.989700317,
,,,141.0590210,-86.989700317,
,,,141.3056335,-86.989700317,
,,,141.5522461,-84.589698792,
,,,141.7988434,-86.989700317,
,,,142.0454559,-86.989700317,
,,,142.2920685,-84.589698792,
,,,142.5386658,-86.989700317,
,,,142.7852783,-86.989700317,
,,,143.0318756,-84.589698792,
,,,143.2784882,-81.389701843,
,,,143.5251007,-86.989700317,
,,,143.7716980,-78.589698792,
,,,144.0183105,-80.589698792,
,,,144.2649078,-80.589698792,
,,,144.5115204,-81.389701843,
,,,144.7581329,-80.589698792,
,,,145.0047302,-80.589698792,
,,,145.2513428,-84.589698792,
,,,145.4979553,-86.989700317,
,,,145.7445526,-86.989700317,
,,,145.9911652,-84.589698792,
,,,146.2377625,-86.989700317,
,,,146.4843750,-86.989700317,
,,,146.7309875,-80.589698792,
,,,146.9775848,-84.589698792,
,,,147.2241974,-78.589698792,
,,,147.4707947,-80.589698792,
,,,147.7174072,-86.989700317,
,,,147.9640198,-86.989700317,
,,,148.2106171,-81.389701843,
,,,148.45722961,-84.589698792,
,,,148.70384216,-84.589698792,
,,,148.95043945,-84.589698792,
,,,149.19705200,-86.989700317,
,,,149.44364929,-86.989700317,
,,,149.69026184,-86.989700317,
,,,149.93687439,-86.989700317,
,,,150.18347168,-86.989700317,
,,,150.43008423,-86.989700317,
,,,150.67669678,-80.589698792,
,,,150.92329407,-81.389701843,
,,,151.16990662,-81.389701843,
,,,151.41650391,-80.589698792,
,,,151.66311646,-80.589698792,
,,,151.90972900,-84.589698792,
,,,152.15632629,-84.589698792,
,,,152.40293884,-84.589698792,
,,,152.64953613,-86.989700317,
,,,152.89614868,-81.389701843,
,,,153.14276123,-86.989700317,
,,,153.38935852,-80.589698792,
,,,153.63597107,-84.589698792,
,,,153.88258362,-84.589698792,
,,,154.12918091,-84.589698792,
,,,154.37579346,-80.589698792,
,,,154.62239075,-80.589698792,
,,,154.86900330,-81.389701843,
,,,155.11561584,-80.589698792,
,,,155.36221313,-80.589698792,
,,,155.60882568,-80.589698792,
,,,155.85542297,-86.989700317,
,,,156.10203552,-86.989700317,
,,,156.34864807,-81.389701843,
,,,156.59524536,-86.989700317,
,,,156.84185791,-86.989700317,
,,,157.08847046,-84.589698792,
,,,157.33506775,-84.589698792,
,,,157.58168030,-86.989700317,
,,,157.82827759,-86.989700317,
,,,158.07489014,-86.989700317,
,,,158.32150269,-84.589698792,
,,,158.56809998,-86.989700317,
,,,158.81471252,-86.989700317,
,,,159.06130981,-86.989700317,
,,,159.30792236,-84.589698792,
,,,159.55453491,-84.589698792,
,,,159.80113220,-80.589698792,
,,,160.04774475,-80.589698792,
,,,160.29435730,-84.589698792,
,,,160.54095459,-86.989700317,
,,,160.78756714,-86.989700317,
