AliasingEffect/FFT data/x2.csv

Record Length,1024,Points,0.0,-38.14850235,
Sample Interval,246.60669267E-3,Hz,246.60669267E-3,-35.34850311,
Trigger Point,0.0,Samples,493.213385344E-3,-42.14850235,
,,,739.820063114E-3,-94.948501587,
,,,986.426770687E-3,-92.548500061,
,,,1.2330334,-92.548500061,
Source,MATH,,1.4796401,-88.548500061,
Vertical Units,dB,,1.7262468,-94.948501587,
Vertical Scale,10.0000001,,1.9728535,-94.948501587,
Vertical Offset,-54.9485,,2.2194602,-88.548500061,
Horizontal Units,Hz,,2.4660668,-86.548500061,
Horizontal Scale,25.25252533,,2.7126737,-89.348503113,
Pt Fmt,Y,,2.95928025,-94.948501587,
Yzero,0.0,,3.20588708,-92.548500061,
,,,3.45249367,-89.348503113,
,,,3.69910049,-94.948501587,
Note,TDS 2012C - 9:51:42 PM   3/29/2026,,3.94570708,-94.948501587,
,,,4.19231367,-92.548500061,
,,,4.43892050,-88.548500061,
,,,4.68552732,-88.548500061,
,,,4.93213367,-88.548500061,
,,,5.17874050,-89.348503113,
,,,5.42534733,-94.948501587,
,,,5.67195415,-94.948501587,
,,,5.91856050,-89.348503113,
,,,6.16516733,-89.348503113,
,,,6.41177416,-88.548500061,
,,,6.65838051,-85.748504639,
,,,6.90498734,-83.348503113,
,,,7.15159416,-85.748504639,
,,,7.398200989,-85.348503113,
,,,7.644807339,-85.348503113,
,,,7.891414165,-84.148498535,
,,,8.138020515,-85.348503113,
,,,8.384627342,-85.348503113,
,,,8.631234169,-84.148498535,
,,,8.877840996,-88.548500061,
,,,9.124447823,-94.948501587,
,,,9.371054649,-92.548500061,
,,,9.617661476,-86.548500061,
,,,9.864267349,-92.548500061,
,,,10.1108742,-94.948501587,
,,,10.3574810,-94.948501587,
,,,10.6040878,-92.548500061,
,,,10.8506947,-94.948501587,
,,,11.0973015,-94.948501587,
,,,11.3439083,-89.348503113,
,,,11.5905142,-85.348503113,
,,,11.8371210,-88.548500061,
,,,12.0837278,-89.348503113,
,,,12.3303347,-83.348503113,
,,,12.5769415,-83.348503113,
,,,12.8235483,-85.348503113,
,,,13.0701551,-86.548500061,
,,,13.3167610,-85.348503113,
,,,13.5633678,-82.948501587,
,,,13.8099747,-82.948501587,
,,,14.0565815,-89.348503113,
,,,14.3031883,-94.948501587,
,,,14.5497952,-94.948501587,
,,,14.7964020,-94.948501587,
,,,15.0430079,-94.948501587,
,,,15.2896147,-92.548500061,
,,,15.5362215,-94.948501587,
,,,15.7828283,-94.948501587,
,,,16.0294342,-94.948501587,
,,,16.2760410,-92.548500061,
,,,16.5226479,-94.948501587,
,,,16.7692547,-94.948501587,
,,,17.0158615,-94.948501587,
,,,17.2624683,-94.948501587,
,,,17.5090752,-94.948501587,
,,,17.7556820,-94.948501587,
,,,18.0022888,-92.548500061,
,,,18.2488956,-85.748504639,
,,,18.4955025,-82.948501587,
,,,18.7421093,-81.348503113,
,,,18.9887161,-84.148498535,
,,,19.2353230,-85.348503113,
,,,19.4819279,-82.548500061,
,,,19.7285347,-82.948501587,
,,,19.9751415,-85.748504639,
,,,20.22174835,-88.548500061,
,,,20.46835518,-94.948501587,
,,,20.71496201,-94.948501587,
,,,20.96156883,-94.948501587,
,,,21.20817566,-94.948501587,
,,,21.45478249,-89.348503113,
,,,21.70138931,-94.948501587,
,,,21.94799614,-94.948501587,
,,,22.19460297,-94.948501587,
,,,22.44120979,-94.948501587,
,,,22.68781662,-94.948501587,
,,,22.93442154,-94.948501587,
,,,23.18102837,-85.748504639,
,,,23.42763519,-89.348503113,
,,,23.67424202,-94.948501587,
,,,23.92084885,-94.948501587,
,,,24.16745567,-94.948501587,
,,,24.41406250,-94.948501587,
,,,24.66066933,-94.948501587,
,,,24.90727615,-89.348503113,
,,,25.15388298,-83.348503113,
,,,25.40048981,-88.548500061,
,,,25.64709663,-86.548500061,
,,,25.89370346,-88.548500061,
,,,26.14031029,-88.548500061,
,,,26.38691521,-92.548500061,
,,,26.63352203,-92.548500061,
,,,26.88012886,-92.548500061,
,,,27.12673569,-92.548500061,
,,,27.37334251,-86.548500061,
,,,27.61994934,-94.948501587,
,,,27.86655617,-94.948501587,
,,,28.11316299,-85.348503113,
,,,28.35976982,-85.348503113,
,,,28.60637665,-88.548500061,
,,,28.85298347,-89.348503113,
,,,29.09959030,-94.948501587,
,,,29.34619713,-88.548500061,
,,,29.59280396,-88.548500061,
,,,29.83940887,-92.548500061,
,,,30.08601570,-94.948501587,
,,,30.33262253,-94.948501587,
,,,30.57922935,-89.348503113,
,,,30.82583618,-89.348503113,
,,,31.07244301,-89.348503113,
,,,31.31904984,-88.548500061,
,,,31.56565666,-94.948501587,
,,,31.81226349,-92.548500061,
,,,32.05886841,-94.948501587,
,,,32.30547714,-92.548500061,
,,,32.55208206,-88.548500061,
,,,32.79869080,-88.548500061,
,,,33.04529572,-83.348503113,
,,,33.29190445,-85.348503113,
,,,33.53850937,-89.348503113,
,,,33.78511810,-94.948501587,
,,,34.03172302,-88.548500061,
,,,34.27833176,-84.148498535,
,,,34.52493668,-85.748504639,
,,,34.77154541,-85.748504639,
,,,35.01815033,-85.348503113,
,,,35.26475525,-84.148498535,
,,,35.51136398,-85.348503113,
,,,35.75796890,-89.348503113,
,,,36.00457764,-94.948501587,
,,,36.25118256,-94.948501587,
,,,36.49779129,-94.948501587,
,,,36.74439621,-92.548500061,
,,,36.99100494,-92.548500061,
,,,37.23760986,-89.348503113,
,,,37.48421860,-88.548500061,
,,,37.73082352,-92.548500061,
,,,37.97743225,-94.948501587,
,,,38.22403717,-94.948501587,
,,,38.47064590,-94.948501587,
,,,38.71725082,-94.948501587,
,,,38.96385574,-92.548500061,
,,,39.21046448,-88.548500061,
,,,39.45706940,-84.148498535,
,,,39.70367813,-88.548500061,
,,,39.95028305,-92.548500061,
,,,40.19689178,-94.948501587,
,,,40.44349670,-89.348503113,
,,,40.69010544,-89.348503113,
,,,40.93671036,-88.548500061,
,,,41.18331909,-85.748504639,
,,,41.42992401,-83.348503113,
,,,41.67653275,-83.348503113,
,,,41.92313766,-82.548500061,
,,,42.16974258,-84.148498535,
,,,42.41635132,-88.548500061,
,,,42.66295624,-92.548500061,
,,,42.90956497,-92.548500061,
,,,43.15616989,-92.548500061,
,,,43.40277863,-88.548500061,
,,,43.64938354,-86.548500061,
,,,43.89599228,-92.548500061,
,,,44.14259720,-94.948501587,
,,,44.38920593,-94.948501587,
,,,44.63581085,-89.348503113,
,,,44.88241959,-89.348503113,
,,,45.12902451,-89.348503113,
,,,45.37563324,-94.948501587,
,,,45.62223816,-94.948501587,
,,,45.86884308,-94.948501587,
,,,46.11545181,-94.948501587,
,,,46.36205673,-94.948501587,
,,,46.60866547,-94.948501587,
,,,46.85527039,-94.948501587,
,,,47.10187912,-94.948501587,
,,,47.34848404,-92.548500061,
,,,47.59509277,-88.548500061,
,,,47.84169769,-86.548500061,
,,,48.08830643,-84.148498535,
,,,48.33491135,-86.548500061,
,,,48.58152008,-89.348503113,
,,,48.82812500,-92.548500061,
,,,49.07473373,-92.548500061,
,,,49.32133865,-94.948501587,
,,,49.56794357,-94.948501587,
,,,49.81455231,-88.548500061,
,,,50.06115723,-88.548500061,
,,,50.30776596,-86.548500061,
,,,50.55437088,-89.348503113,
,,,50.80097961,-89.348503113,
,,,51.04758453,-94.948501587,
,,,51.29419327,-94.948501587,
,,,51.54079819,-94.948501587,
,,,51.78740692,-94.948501587,
,,,52.03401184,-88.548500061,
,,,52.28062057,-88.548500061,
,,,52.52722549,-94.948501587,
,,,52.77383041,-92.548500061,
,,,53.02043915,-94.948501587,
,,,53.26704407,-92.548500061,
,,,53.51365280,-94.948501587,
,,,53.76025772,-94.948501587,
,,,54.00686646,-94.948501587,
,,,54.25347137,-94.948501587,
,,,54.50008011,-89.348503113,
,,,54.746685028,-94.948501587,
,,,54.993293762,-94.948501587,
,,,55.239898682,-92.548500061,
,,,55.486507416,-94.948501587,
,,,55.733112335,-94.948501587,
,,,55.979721069,-94.948501587,
,,,56.226325989,-88.548500061,
,,,56.472930908,-86.548500061,
,,,56.719539642,-85.348503113,
,,,56.966144562,-88.548500061,
,,,57.212753296,-89.348503113,
,,,57.459358215,-88.548500061,
,,,57.705966949,-86.548500061,
,,,57.952571869,-92.548500061,
,,,58.199180603,-94.948501587,
,,,58.445785522,-94.948501587,
,,,58.692394257,-94.948501587,
,,,58.938999176,-94.948501587,
,,,59.185607910,-94.948501587,
,,,59.432212830,-94.948501587,
,,,59.678817749,-94.948501587,
,,,59.925426483,-92.548500061,
,,,60.172031403,-92.548500061,
,,,60.418640137,-92.548500061,
,,,60.665245056,-92.548500061,
,,,60.911853790,-94.948501587,
,,,61.158458710,-88.548500061,
,,,61.405067444,-85.748504639,
,,,61.651672363,-85.748504639,
,,,61.898281097,-94.948501587,
,,,62.144886017,-92.548500061,
,,,62.391494751,-94.948501587,
,,,62.638099670,-94.948501587,
,,,62.884708405,-94.948501587,
,,,63.131313324,-92.548500061,
,,,63.377918243,-89.348503113,
,,,63.624526978,-94.948501587,
,,,63.871131897,-94.948501587,
,,,64.117736816,-94.948501587,
,,,64.364349365,-92.548500061,
,,,64.610954285,-88.548500061,
,,,64.857559204,-92.548500061,
,,,65.104164124,-92.548500061,
,,,65.350776672,-94.948501587,
,,,65.597381592,-94.948501587,
,,,65.843986511,-94.948501587,
,,,66.090591431,-94.948501587,
,,,66.337203979,-94.948501587,
,,,66.583808899,-94.948501587,
,,,66.830413818,-88.548500061,
,,,67.077018738,-84.148498535,
,,,67.323623657,-86.548500061,
,,,67.570236206,-86.548500061,
,,,67.816841125,-88.548500061,
,,,68.063446045,-94.948501587,
,,,68.310050964,-94.948501587,
,,,68.556663513,-92.548500061,
,,,68.803268433,-92.548500061,
,,,69.049873352,-94.948501587,
,,,69.296478271,-94.948501587,
,,,69.543090820,-94.948501587,
,,,69.789695740,-92.548500061,
,,,70.036300659,-94.948501587,
,,,70.282905579,-88.548500061,
,,,70.529510498,-88.548500061,
,,,70.776123047,-94.948501587,
,,,71.022727966,-92.548500061,
,,,71.269332886,-86.548500061,
,,,71.515937805,-89.348503113,
,,,71.762550354,-88.548500061,
,,,72.009155273,-92.548500061,
,,,72.255760193,-88.548500061,
,,,72.502365112,-92.548500061,
,,,72.748977661,-94.948501587,
,,,72.995582581,-88.548500061,
,,,73.242187500,-85.748504639,
,,,73.488792419,-84.148498535,
,,,73.735397339,-92.548500061,
,,,73.982009888,-92.548500061,
,,,74.228614807,-88.548500061,
,,,74.475219727,-86.548500061,
,,,74.721824646,-86.548500061,
,,,74.968437195,-94.948501587,
,,,75.215042114,-94.948501587,
,,,75.461647034,-94.948501587,
,,,75.708251953,-94.948501587,
,,,75.954864502,-88.548500061,
,,,76.201469421,-92.548500061,
,,,76.448074341,-94.948501587,
,,,76.694679260,-94.948501587,
,,,76.941291809,-92.548500061,
,,,77.187896729,-85.348503113,
,,,77.434501648,-84.148498535,
,,,77.681106567,-85.348503113,
,,,77.927711487,-92.548500061,
,,,78.174324036,-94.948501587,
,,,78.420928955,-92.548500061,
,,,78.667533875,-88.548500061,
,,,78.914138794,-84.148498535,
,,,79.160751343,-86.548500061,
,,,79.407356262,-82.948501587,
,,,79.653961182,-85.748504639,
,,,79.900566101,-86.548500061,
,,,80.147178650,-92.548500061,
,,,80.393783569,-94.948501587,
,,,80.640388489,-94.948501587,
,,,80.886993408,-89.348503113,
,,,81.133598328,-94.948501587,
,,,81.380210876,-89.348503113,
,,,81.626815796,-85.348503113,
,,,81.873420715,-88.548500061,
,,,82.120025635,-86.548500061,
,,,82.366638184,-88.548500061,
,,,82.613243103,-94.948501587,
,,,82.859848022,-94.948501587,
,,,83.106452942,-89.348503113,
,,,83.353065491,-89.348503113,
,,,83.599670410,-89.348503113,
,,,83.846275330,-94.948501587,
,,,84.092880249,-94.948501587,
,,,84.339485168,-94.948501587,
,,,84.586097717,-89.348503113,
,,,84.832702637,-88.548500061,
,,,85.079307556,-88.548500061,
,,,85.325912476,-94.948501587,
,,,85.572525024,-94.948501587,
,,,85.819129944,-94.948501587,
,,,86.065734863,-94.948501587,
,,,86.312339783,-94.948501587,
,,,86.558952332,-94.948501587,
,,,86.805557251,-92.548500061,
,,,87.052162170,-89.348503113,
,,,87.298767090,-89.348503113,
,,,87.545379639,-88.548500061,
,,,87.791984558,-88.548500061,
,,,88.038589478,-94.948501587,
,,,88.285194397,-94.948501587,
,,,88.531799316,-92.548500061,
,,,88.778411865,-89.348503113,
,,,89.025016785,-94.948501587,
,,,89.271621704,-94.948501587,
,,,89.518226624,-94.948501587,
,,,89.764839172,-94.948501587,
,,,90.011444092,-94.948501587,
,,,90.258049011,-94.948501587,
,,,90.504653931,-94.948501587,
,,,90.751266479,-92.548500061,
,,,90.997871399,-92.548500061,
,,,91.244476318,-94.948501587,
,,,91.491081238,-94.948501587,
,,,91.737686157,-94.948501587,
,,,91.984298706,-94.948501587,
,,,92.230903625,-92.548500061,
,,,92.477508545,-86.548500061,
,,,92.724113464,-88.548500061,
,,,92.970726013,-92.548500061,
,,,93.217330933,-88.548500061,
,,,93.463935852,-85.748504639,
,,,93.710540771,-89.348503113,
,,,93.957153320,-94.948501587,
,,,94.203758240,-94.948501587,
,,,94.450363159,-94.948501587,
,,,94.696968079,-94.948501587,
,,,94.943572998,-92.548500061,
,,,95.190185547,-92.548500061,
,,,95.436790466,-92.548500061,
,,,95.683395386,-89.348503113,
,,,95.930000305,-85.748504639,
,,,96.176612854,-85.748504639,
,,,96.423217773,-88.548500061,
,,,96.669822693,-92.548500061,
,,,96.916427612,-94.948501587,
,,,97.163040161,-88.548500061,
,,,97.409645081,-94.948501587,
,,,97.656250000,-88.548500061,
,,,97.902854919,-88.548500061,
,,,98.149467468,-92.548500061,
,,,98.396072388,-94.948501587,
,,,98.642677307,-94.948501587,
,,,98.889282227,-92.548500061,
,,,99.135887146,-94.948501587,
,,,99.382499695,-92.548500061,
,,,99.629104614,-89.348503113,
,,,99.875709534,-85.748504639,
,,,100.1223145,-89.348503113,
,,,100.3689270,-94.948501587,
,,,100.6155319,-92.548500061,
,,,100.8621368,-92.548500061,
,,,101.1087418,-94.948501587,
,,,101.3553543,-88.548500061,
,,,101.6019592,-88.548500061,
,,,101.8485641,-89.348503113,
,,,102.0951691,-86.548500061,
,,,102.3417740,-84.148498535,
,,,102.5883865,-85.748504639,
,,,102.8349915,-82.948501587,
,,,103.0815964,-92.548500061,
,,,103.3282013,-81.348503113,
,,,103.5748138,-81.348503113,
,,,103.8214188,-75.348503113,
,,,104.0680237,-67.348503113,
,,,104.3146286,-54.14850235,
,,,104.5612411,-32.54850006,
,,,104.8078461,-28.14850044,
,,,105.0544510,-28.14850044,
,,,105.3010559,-29.34850121,
,,,105.5476608,-38.54850006,
,,,105.7942734,-60.948501587,
,,,106.0408783,-72.148498535,
,,,106.2874832,-77.348503113,
,,,106.5340881,-81.348503113,
,,,106.7807007,-88.548500061,
,,,107.0273056,-85.748504639,
,,,107.2739105,-94.948501587,
,,,107.5205154,-88.548500061,
,,,107.7671280,-85.748504639,
,,,108.0137329,-81.348503113,
,,,108.2603378,-81.348503113,
,,,108.5069427,-83.348503113,
,,,108.7535477,-88.548500061,
,,,109.0001602,-88.548500061,
,,,109.2467651,-94.948501587,
,,,109.4933701,-94.948501587,
,,,109.7399750,-92.548500061,
,,,109.9865875,-94.948501587,
,,,110.2331924,-92.548500061,
,,,110.4797974,-94.948501587,
,,,110.7264023,-94.948501587,
,,,110.9730148,-94.948501587,
,,,111.2196198,-94.948501587,
,,,111.4662247,-94.948501587,
,,,111.7128296,-92.548500061,
,,,111.9594421,-94.948501587,
,,,112.2060471,-92.548500061,
,,,112.4526520,-94.948501587,
,,,112.6992569,-94.948501587,
,,,112.9458618,-92.548500061,
,,,113.1924744,-92.548500061,
,,,113.4390793,-94.948501587,
,,,113.6856842,-92.548500061,
,,,113.9322891,-94.948501587,
,,,114.1789017,-92.548500061,
,,,114.4255066,-88.548500061,
,,,114.6721115,-88.548500061,
,,,114.9187164,-86.548500061,
,,,115.1653290,-86.548500061,
,,,115.4119339,-88.548500061,
,,,115.6585388,-88.548500061,
,,,115.9051437,-88.548500061,
,,,116.1517487,-89.348503113,
,,,116.3983612,-85.748504639,
,,,116.6449661,-89.348503113,
,,,116.8915710,-94.948501587,
,,,117.1381760,-88.548500061,
,,,117.3847885,-92.548500061,
,,,117.6313934,-86.548500061,
,,,117.8779984,-88.548500061,
,,,118.1246033,-94.948501587,
,,,118.3712158,-94.948501587,
,,,118.6178207,-89.348503113,
,,,118.8644257,-94.948501587,
,,,119.1110306,-94.948501587,
,,,119.3576355,-92.548500061,
,,,119.6042480,-94.948501587,
,,,119.8508530,-94.948501587,
,,,120.0974579,-94.948501587,
,,,120.3440628,-94.948501587,
,,,120.5906754,-94.948501587,
,,,120.8372803,-94.948501587,
,,,121.0838852,-94.948501587,
,,,121.3304901,-94.948501587,
,,,121.5771027,-94.948501587,
,,,121.8237076,-94.948501587,
,,,122.0703125,-94.948501587,
,,,122.3169174,-88.548500061,
,,,122.5635300,-86.548500061,
,,,122.8101349,-88.548500061,
,,,123.0567398,-88.548500061,
,,,123.3033447,-88.548500061,
,,,123.5499496,-89.348503113,
,,,123.7965622,-89.348503113,
,,,124.0431671,-89.348503113,
,,,124.2897720,-94.948501587,
,,,124.5363770,-89.348503113,
,,,124.7829895,-92.548500061,
,,,125.0295944,-88.548500061,
,,,125.2761993,-86.548500061,
,,,125.5228043,-85.348503113,
,,,125.7694168,-88.548500061,
,,,126.0160217,-88.548500061,
,,,126.2626266,-88.548500061,
,,,126.5092316,-88.548500061,
,,,126.7558365,-92.548500061,
,,,127.0024490,-94.948501587,
,,,127.2490540,-92.548500061,
,,,127.4956589,-92.548500061,
,,,127.7422638,-88.548500061,
,,,127.9888763,-85.748504639,
,,,128.2354736,-88.548500061,
,,,128.4820862,-94.948501587,
,,,128.7286987,-94.948501587,
,,,128.9752960,-85.748504639,
,,,129.2219086,-88.548500061,
,,,129.4685211,-92.548500061,
,,,129.7151184,-89.348503113,
,,,129.9617310,-89.348503113,
,,,130.2083282,-94.948501587,
,,,130.4549408,-94.948501587,
,,,130.7015533,-92.548500061,
,,,130.9481506,-94.948501587,
,,,131.1947632,-89.348503113,
,,,131.4413605,-88.548500061,
,,,131.6879730,-92.548500061,
,,,131.9345856,-94.948501587,
,,,132.1811829,-89.348503113,
,,,132.4277954,-89.348503113,
,,,132.6744080,-89.348503113,
,,,132.9210052,-94.948501587,
,,,133.1676178,-94.948501587,
,,,133.4142151,-94.948501587,
,,,133.6608276,-94.948501587,
,,,133.9074402,-94.948501587,
,,,134.1540375,-88.548500061,
,,,134.4006500,-92.548500061,
,,,134.6472473,-86.548500061,
,,,134.8938599,-88.548500061,
,,,135.1404724,-88.548500061,
,,,135.3870697,-92.548500061,
,,,135.6336823,-94.948501587,
,,,135.8802948,-92.548500061,
,,,136.1268921,-89.348503113,
,,,136.3735046,-89.348503113,
,,,136.6201019,-85.348503113,
,,,136.8667145,-82.948501587,
,,,137.1133270,-82.548500061,
,,,137.3599243,-81.348503113,
,,,137.6065369,-82.948501587,
,,,137.8531342,-92.548500061,
,,,138.0997467,-88.548500061,
,,,138.3463593,-94.948501587,
,,,138.5929565,-94.948501587,
,,,138.8395691,-92.548500061,
,,,139.0861816,-94.948501587,
,,,139.3327789,-89.348503113,
,,,139.5793915,-88.548500061,
,,,139.8259888,-94.948501587,
,,,140.0726013,-92.548500061,
,,,140.3192139,-94.948501587,
,,,140.5658112,-94.948501587,
,,,140.8124237,-94.948501587,
,,,141.0590210,-88.548500061,
,,,141.3056335,-88.548500061,
,,,141.5522461,-88.548500061,
,,,141.7988434,-92.548500061,
,,,142.0454559,-94.948501587,
,,,142.2920685,-89.348503113,
,,,142.5386658,-94.948501587,
,,,142.7852783,-94.948501587,
,,,143.0318756,-88.548500061,
,,,143.2784882,-88.548500061,
,,,143.5251007,-85.348503113,
,,,143.7716980,-85.348503113,
,,,144.0183105,-89.348503113,
,,,144.2649078,-88.548500061,
,,,144.5115204,-88.548500061,
,,,144.7581329,-86.548500061,
,,,145.0047302,-89.348503113,
,,,145.2513428,-92.548500061,
,,,145.4979553,-92.548500061,
,,,145.7445526,-88.548500061,
,,,145.9911652,-88.548500061,
,,,146.2377625,-88.548500061,
,,,146.4843750,-88.548500061,
,,,146.7309875,-88.548500061,
,,,146.9775848,-86.548500061,
,,,147.2241974,-94.948501587,
,,,147.4707947,-88.548500061,
,,,147.7174072,-88.548500061,
,,,147.9640198,-88.548500061,
,,,148.2106171,-92.548500061,
,,,148.45722961,-94.948501587,
,,,148.70384216,-94.948501587,
,,,148.95043945,-94.948501587,
,,,149.19705200,-88.548500061,
,,,149.44364929,-94.948501587,
,,,149.69026184,-94.948501587,
,,,149.93687439,-88.548500061,
,,,150.18347168,-86.548500061,
,,,150.43008423,-92.548500061,
,,,150.67669678,-94.948501587,
,,,150.92329407,-94.948501587,
,,,151.16990662,-88.548500061,
,,,151.41650391,-94.948501587,
,,,151.66311646,-94.948501587,
,,,151.90972900,-94.948501587,
,,,152.15632629,-92.548500061,
,,,152.40293884,-92.548500061,
,,,152.64953613,-94.948501587,
,,,152.89614868,-94.948501587,
,,,153.14276123,-92.548500061,
,,,153.38935852,-88.548500061,
,,,153.63597107,-92.548500061,
,,,153.88258362,-94.948501587,
,,,154.12918091,-89.348503113,
,,,154.37579346,-88.548500061,
,,,154.62239075,-88.548500061,
,,,154.86900330,-88.548500061,
,,,155.11561584,-89.348503113,
,,,155.36221313,-94.948501587,
,,,155.60882568,-86.548500061,
,,,155.85542297,-84.148498535,
,,,156.10203552,-84.148498535,
,,,156.34864807,-88.548500061,
,,,156.59524536,-92.548500061,
,,,156.84185791,-92.548500061,
,,,157.08847046,-92.548500061,
,,,157.33506775,-92.548500061,
,,,157.58168030,-94.948501587,
,,,157.82827759,-94.948501587,
,,,158.07489014,-94.948501587,
,,,158.32150269,-85.748504639,
,,,158.56809998,-92.548500061,
,,,158.81471252,-92.548500061,
,,,159.06130981,-85.348503113,
,,,159.30792236,-85.748504639,
,,,159.55453491,-92.548500061,
,,,159.80113220,-92.548500061,
,,,160.04774475,-94.948501587,
,,,160.29435730,-92.548500061,
,,,160.54095459,-94.948501587,
