AliasingEffect/timeSignal_data/x1.csv

Record Length,1024,Points,0.0,-19.7896996,
Sample Interval,246.60669267E-3,Hz,246.60669267E-3,-17.3896999,
Trigger Point,0.0,Samples,493.213385344E-3,-24.18969917,
,,,739.820063114E-3,-73.389701843,
,,,986.426770687E-3,-77.389701843,
,,,1.2330334,-76.189697266,
Source,MATH,,1.4796401,-77.389701843,
Vertical Units,dB,,1.7262468,-74.989700317,
Vertical Scale,10.0000001,,1.9728535,-81.389701843,
Vertical Offset,-46.9897,,2.2194602,-80.589698792,
Horizontal Units,Hz,,2.4660668,-84.589698792,
Horizontal Scale,25.25252533,,2.7126737,-86.989700317,
Pt Fmt,Y,,2.95928025,-84.589698792,
Yzero,0.0,,3.20588708,-84.589698792,
,,,3.45249367,-86.989700317,
,,,3.69910049,-86.989700317,
Note,TDS 2012C - 9:50:58 PM   3/29/2026,,3.94570708,-86.989700317,
,,,4.19231367,-84.589698792,
,,,4.43892050,-80.589698792,
,,,4.68552732,-78.589698792,
,,,4.93213367,-80.589698792,
,,,5.17874050,-81.389701843,
,,,5.42534733,-84.589698792,
,,,5.67195415,-84.589698792,
,,,5.91856050,-86.989700317,
,,,6.16516733,-86.989700317,
,,,6.41177416,-84.589698792,
,,,6.65838051,-86.989700317,
,,,6.90498734,-86.989700317,
,,,7.15159416,-86.989700317,
,,,7.398200989,-84.589698792,
,,,7.644807339,-86.989700317,
,,,7.891414165,-84.589698792,
,,,8.138020515,-74.989700317,
,,,8.384627342,-86.989700317,
,,,8.631234169,-71.789703369,
,,,8.877840996,-73.389701843,
,,,9.124447823,-61.789699554,
,,,9.371054649,-46.98970032,
,,,9.617661476,-32.18970108,
,,,9.864267349,-29.38969994,
,,,10.1108742,-29.38969994,
,,,10.3574810,-31.38969994,
,,,10.6040878,-44.18970108,
,,,10.8506947,-61.389701843,
,,,11.0973015,-69.389701843,
,,,11.3439083,-80.589698792,
,,,11.5905142,-81.389701843,
,,,11.8371210,-80.589698792,
,,,12.0837278,-80.589698792,
,,,12.3303347,-77.389701843,
,,,12.5769415,-84.589698792,
,,,12.8235483,-81.389701843,
,,,13.0701551,-84.589698792,
,,,13.3167610,-81.389701843,
,,,13.5633678,-80.589698792,
,,,13.8099747,-80.589698792,
,,,14.0565815,-80.589698792,
,,,14.3031883,-84.589698792,
,,,14.5497952,-80.589698792,
,,,14.7964020,-81.389701843,
,,,15.0430079,-81.389701843,
,,,15.2896147,-80.589698792,
,,,15.5362215,-86.989700317,
,,,15.7828283,-84.589698792,
,,,16.0294342,-86.989700317,
,,,16.2760410,-86.989700317,
,,,16.5226479,-86.989700317,
,,,16.7692547,-81.389701843,
,,,17.0158615,-86.989700317,
,,,17.2624683,-84.589698792,
,,,17.5090752,-80.589698792,
,,,17.7556820,-77.389701843,
,,,18.0022888,-76.189697266,
,,,18.2488956,-78.589698792,
,,,18.4955025,-80.589698792,
,,,18.7421093,-77.389701843,
,,,18.9887161,-77.389701843,
,,,19.2353230,-81.389701843,
,,,19.4819279,-81.389701843,
,,,19.7285347,-69.789703369,
,,,19.9751415,-66.589698792,
,,,20.22174835,-65.789703369,
,,,20.46835518,-67.389701843,
,,,20.71496201,-76.189697266,
,,,20.96156883,-80.589698792,
,,,21.20817566,-81.389701843,
,,,21.45478249,-81.389701843,
,,,21.70138931,-86.989700317,
,,,21.94799614,-84.589698792,
,,,22.19460297,-86.989700317,
,,,22.44120979,-81.389701843,
,,,22.68781662,-84.589698792,
,,,22.93442154,-77.789703369,
,,,23.18102837,-80.589698792,
,,,23.42763519,-80.589698792,
,,,23.67424202,-80.589698792,
,,,23.92084885,-84.589698792,
,,,24.16745567,-84.589698792,
,,,24.41406250,-86.989700317,
,,,24.66066933,-84.589698792,
,,,24.90727615,-86.989700317,
,,,25.15388298,-86.989700317,
,,,25.40048981,-84.589698792,
,,,25.64709663,-86.989700317,
,,,25.89370346,-86.989700317,
,,,26.14031029,-86.989700317,
,,,26.38691521,-86.989700317,
,,,26.63352203,-86.989700317,
,,,26.88012886,-84.589698792,
,,,27.12673569,-86.989700317,
,,,27.37334251,-86.989700317,
,,,27.61994934,-86.989700317,
,,,27.86655617,-86.989700317,
,,,28.11316299,-86.989700317,
,,,28.35976982,-81.389701843,
,,,28.60637665,-77.389701843,
,,,28.85298347,-80.589698792,
,,,29.09959030,-84.589698792,
,,,29.34619713,-86.989700317,
,,,29.59280396,-80.589698792,
,,,29.83940887,-74.989700317,
,,,30.08601570,-72.189697266,
,,,30.33262253,-72.989700317,
,,,30.57922935,-74.989700317,
,,,30.82583618,-84.589698792,
,,,31.07244301,-86.989700317,
,,,31.31904984,-86.989700317,
,,,31.56565666,-86.989700317,
,,,31.81226349,-80.589698792,
,,,32.05886841,-84.589698792,
,,,32.30547714,-84.589698792,
,,,32.55208206,-86.989700317,
,,,32.79869080,-86.989700317,
,,,33.04529572,-86.989700317,
,,,33.29190445,-86.989700317,
,,,33.53850937,-86.989700317,
,,,33.78511810,-80.589698792,
,,,34.03172302,-77.789703369,
,,,34.27833176,-77.389701843,
,,,34.52493668,-80.589698792,
,,,34.77154541,-80.589698792,
,,,35.01815033,-84.589698792,
,,,35.26475525,-84.589698792,
,,,35.51136398,-84.589698792,
,,,35.75796890,-86.989700317,
,,,36.00457764,-86.989700317,
,,,36.25118256,-86.989700317,
,,,36.49779129,-86.989700317,
,,,36.74439621,-86.989700317,
,,,36.99100494,-86.989700317,
,,,37.23760986,-84.589698792,
,,,37.48421860,-80.589698792,
,,,37.73082352,-80.589698792,
,,,37.97743225,-86.989700317,
,,,38.22403717,-86.989700317,
,,,38.47064590,-86.989700317,
,,,38.71725082,-84.589698792,
,,,38.96385574,-80.589698792,
,,,39.21046448,-81.389701843,
,,,39.45706940,-84.589698792,
,,,39.70367813,-84.589698792,
,,,39.95028305,-81.389701843,
,,,40.19689178,-76.189697266,
,,,40.44349670,-76.189697266,
,,,40.69010544,-74.989700317,
,,,40.93671036,-77.389701843,
,,,41.18331909,-84.589698792,
,,,41.42992401,-86.989700317,
,,,41.67653275,-86.989700317,
,,,41.92313766,-86.989700317,
,,,42.16974258,-84.589698792,
,,,42.41635132,-86.989700317,
,,,42.66295624,-86.989700317,
,,,42.90956497,-84.589698792,
,,,43.15616989,-86.989700317,
,,,43.40277863,-86.989700317,
,,,43.64938354,-86.989700317,
,,,43.89599228,-86.989700317,
,,,44.14259720,-84.589698792,
,,,44.38920593,-80.589698792,
,,,44.63581085,-80.589698792,
,,,44.88241959,-81.389701843,
,,,45.12902451,-86.989700317,
,,,45.37563324,-86.989700317,
,,,45.62223816,-86.989700317,
,,,45.86884308,-86.989700317,
,,,46.11545181,-86.989700317,
,,,46.36205673,-84.589698792,
,,,46.60866547,-80.589698792,
,,,46.85527039,-80.589698792,
,,,47.10187912,-84.589698792,
,,,47.34848404,-86.989700317,
,,,47.59509277,-86.989700317,
,,,47.84169769,-86.989700317,
,,,48.08830643,-84.589698792,
,,,48.33491135,-86.989700317,
,,,48.58152008,-84.589698792,
,,,48.82812500,-84.589698792,
,,,49.07473373,-80.589698792,
,,,49.32133865,-80.589698792,
,,,49.56794357,-76.189697266,
,,,49.81455231,-74.989700317,
,,,50.06115723,-76.189697266,
,,,50.30776596,-77.389701843,
,,,50.55437088,-81.389701843,
,,,50.80097961,-86.989700317,
,,,51.04758453,-86.989700317,
,,,51.29419327,-86.989700317,
,,,51.54079819,-86.989700317,
,,,51.78740692,-86.989700317,
,,,52.03401184,-86.989700317,
,,,52.28062057,-86.989700317,
,,,52.52722549,-86.989700317,
,,,52.77383041,-86.989700317,
,,,53.02043915,-80.589698792,
,,,53.26704407,-80.589698792,
,,,53.51365280,-80.589698792,
,,,53.76025772,-86.989700317,
,,,54.00686646,-78.589698792,
,,,54.25347137,-81.389701843,
,,,54.50008011,-81.389701843,
,,,54.746685028,-77.389701843,
,,,54.993293762,-76.189697266,
,,,55.239898682,-80.589698792,
,,,55.486507416,-81.389701843,
,,,55.733112335,-81.389701843,
,,,55.979721069,-84.589698792,
,,,56.226325989,-84.589698792,
,,,56.472930908,-86.989700317,
,,,56.719539642,-86.989700317,
,,,56.966144562,-86.989700317,
,,,57.212753296,-84.589698792,
,,,57.459358215,-86.989700317,
,,,57.705966949,-86.989700317,
,,,57.952571869,-86.989700317,
,,,58.199180603,-86.989700317,
,,,58.445785522,-84.589698792,
,,,58.692394257,-86.989700317,
,,,58.938999176,-81.389701843,
,,,59.185607910,-81.389701843,
,,,59.432212830,-86.989700317,
,,,59.678817749,-81.389701843,
,,,59.925426483,-80.589698792,
,,,60.172031403,-81.389701843,
,,,60.418640137,-80.589698792,
,,,60.665245056,-84.589698792,
,,,60.911853790,-86.989700317,
,,,61.158458710,-86.989700317,
,,,61.405067444,-84.589698792,
,,,61.651672363,-84.589698792,
,,,61.898281097,-81.389701843,
,,,62.144886017,-86.989700317,
,,,62.391494751,-84.589698792,
,,,62.638099670,-86.989700317,
,,,62.884708405,-86.989700317,
,,,63.131313324,-86.989700317,
,,,63.377918243,-84.589698792,
,,,63.624526978,-86.989700317,
,,,63.871131897,-81.389701843,
,,,64.117736816,-80.589698792,
,,,64.364349365,-86.989700317,
,,,64.610954285,-84.589698792,
,,,64.857559204,-86.989700317,
,,,65.104164124,-86.989700317,
,,,65.350776672,-80.589698792,
,,,65.597381592,-81.389701843,
,,,65.843986511,-84.589698792,
,,,66.090591431,-86.989700317,
,,,66.337203979,-84.589698792,
,,,66.583808899,-86.989700317,
,,,66.830413818,-81.389701843,
,,,67.077018738,-80.589698792,
,,,67.323623657,-84.589698792,
,,,67.570236206,-86.989700317,
,,,67.816841125,-86.989700317,
,,,68.063446045,-80.589698792,
,,,68.310050964,-78.589698792,
,,,68.556663513,-80.589698792,
,,,68.803268433,-86.989700317,
,,,69.049873352,-84.589698792,
,,,69.296478271,-80.589698792,
,,,69.543090820,-80.589698792,
,,,69.789695740,-75.389701843,
,,,70.036300659,-73.389701843,
,,,70.282905579,-73.389701843,
,,,70.529510498,-76.189697266,
,,,70.776123047,-76.189697266,
,,,71.022727966,-78.589698792,
,,,71.269332886,-80.589698792,
,,,71.515937805,-77.789703369,
,,,71.762550354,-80.589698792,
,,,72.009155273,-80.589698792,
,,,72.255760193,-86.989700317,
,,,72.502365112,-86.989700317,
,,,72.748977661,-77.789703369,
,,,72.995582581,-80.589698792,
,,,73.242187500,-80.589698792,
,,,73.488792419,-84.589698792,
,,,73.735397339,-86.989700317,
,,,73.982009888,-81.389701843,
,,,74.228614807,-76.189697266,
,,,74.475219727,-72.189697266,
,,,74.721824646,-70.989700317,
,,,74.968437195,-70.989700317,
,,,75.215042114,-74.989700317,
,,,75.461647034,-86.989700317,
,,,75.708251953,-86.989700317,
,,,75.954864502,-86.989700317,
,,,76.201469421,-84.589698792,
,,,76.448074341,-81.389701843,
,,,76.694679260,-80.589698792,
,,,76.941291809,-84.589698792,
,,,77.187896729,-86.989700317,
,,,77.434501648,-86.989700317,
,,,77.681106567,-86.989700317,
,,,77.927711487,-86.989700317,
,,,78.174324036,-84.589698792,
,,,78.420928955,-86.989700317,
,,,78.667533875,-84.589698792,
,,,78.914138794,-86.989700317,
,,,79.160751343,-86.989700317,
,,,79.407356262,-86.989700317,
,,,79.653961182,-84.589698792,
,,,79.900566101,-80.589698792,
,,,80.147178650,-80.589698792,
,,,80.393783569,-86.989700317,
,,,80.640388489,-84.589698792,
,,,80.886993408,-84.589698792,
,,,81.133598328,-80.589698792,
,,,81.380210876,-84.589698792,
,,,81.626815796,-86.989700317,
,,,81.873420715,-86.989700317,
,,,82.120025635,-84.589698792,
,,,82.366638184,-81.389701843,
,,,82.613243103,-86.989700317,
,,,82.859848022,-86.989700317,
,,,83.106452942,-86.989700317,
,,,83.353065491,-86.989700317,
,,,83.599670410,-84.589698792,
,,,83.846275330,-84.589698792,
,,,84.092880249,-84.589698792,
,,,84.339485168,-81.389701843,
,,,84.586097717,-67.389701843,
,,,84.832702637,-64.989700317,
,,,85.079307556,-64.989700317,
,,,85.325912476,-67.789703369,
,,,85.572525024,-80.589698792,
,,,85.819129944,-84.589698792,
,,,86.065734863,-84.589698792,
,,,86.312339783,-84.589698792,
,,,86.558952332,-81.389701843,
,,,86.805557251,-84.589698792,
,,,87.052162170,-86.989700317,
,,,87.298767090,-86.989700317,
,,,87.545379639,-80.589698792,
,,,87.791984558,-86.989700317,
,,,88.038589478,-86.989700317,
,,,88.285194397,-80.589698792,
,,,88.531799316,-80.589698792,
,,,88.778411865,-84.589698792,
,,,89.025016785,-81.389701843,
,,,89.271621704,-86.989700317,
,,,89.518226624,-86.989700317,
,,,89.764839172,-86.989700317,
,,,90.011444092,-80.589698792,
,,,90.258049011,-84.589698792,
,,,90.504653931,-80.589698792,
,,,90.751266479,-80.589698792,
,,,90.997871399,-81.389701843,
,,,91.244476318,-86.989700317,
,,,91.491081238,-84.589698792,
,,,91.737686157,-86.989700317,
,,,91.984298706,-80.589698792,
,,,92.230903625,-81.389701843,
,,,92.477508545,-84.589698792,
,,,92.724113464,-84.589698792,
,,,92.970726013,-86.989700317,
,,,93.217330933,-80.589698792,
,,,93.463935852,-80.589698792,
,,,93.710540771,-78.589698792,
,,,93.957153320,-84.589698792,
,,,94.203758240,-84.589698792,
,,,94.450363159,-76.189697266,
,,,94.696968079,-63.389701843,
,,,94.943572998,-60.989700317,
,,,95.190185547,-61.389701843,
,,,95.436790466,-64.189697266,
,,,95.683395386,-77.789703369,
,,,95.930000305,-80.589698792,
,,,96.176612854,-80.589698792,
,,,96.423217773,-86.989700317,
,,,96.669822693,-86.989700317,
,,,96.916427612,-81.389701843,
,,,97.163040161,-81.389701843,
,,,97.409645081,-81.389701843,
,,,97.656250000,-86.989700317,
,,,97.902854919,-84.589698792,
,,,98.149467468,-86.989700317,
,,,98.396072388,-86.989700317,
,,,98.642677307,-86.989700317,
,,,98.889282227,-80.589698792,
,,,99.135887146,-78.589698792,
,,,99.382499695,-80.589698792,
,,,99.629104614,-86.989700317,
,,,99.875709534,-86.989700317,
,,,100.1223145,-80.589698792,
,,,100.3689270,-84.589698792,
,,,100.6155319,-84.589698792,
,,,100.8621368,-86.989700317,
,,,101.1087418,-86.989700317,
,,,101.3553543,-86.989700317,
,,,101.6019592,-86.989700317,
,,,101.8485641,-84.589698792,
,,,102.0951691,-81.389701843,
,,,102.3417740,-80.589698792,
,,,102.5883865,-80.589698792,
,,,102.8349915,-84.589698792,
,,,103.0815964,-84.589698792,
,,,103.3282013,-86.989700317,
,,,103.5748138,-86.989700317,
,,,103.8214188,-86.989700317,
,,,104.0680237,-84.589698792,
,,,104.3146286,-78.589698792,
,,,104.5612411,-68.189697266,
,,,104.8078461,-64.989700317,
,,,105.0544510,-64.989700317,
,,,105.3010559,-67.389701843,
,,,105.5476608,-76.189697266,
,,,105.7942734,-80.589698792,
,,,106.0408783,-80.589698792,
,,,106.2874832,-86.989700317,
,,,106.5340881,-86.989700317,
,,,106.7807007,-86.989700317,
,,,107.0273056,-86.989700317,
,,,107.2739105,-86.989700317,
,,,107.5205154,-86.989700317,
,,,107.7671280,-86.989700317,
,,,108.0137329,-86.989700317,
,,,108.2603378,-80.589698792,
,,,108.5069427,-80.589698792,
,,,108.7535477,-81.389701843,
,,,109.0001602,-86.989700317,
,,,109.2467651,-81.389701843,
,,,109.4933701,-84.589698792,
,,,109.7399750,-81.389701843,
,,,109.9865875,-77.389701843,
,,,110.2331924,-81.389701843,
,,,110.4797974,-81.389701843,
,,,110.7264023,-81.389701843,
,,,110.9730148,-86.989700317,
,,,111.2196198,-81.389701843,
,,,111.4662247,-84.589698792,
,,,111.7128296,-86.989700317,
,,,111.9594421,-86.989700317,
,,,112.2060471,-81.389701843,
,,,112.4526520,-77.389701843,
,,,112.6992569,-77.389701843,
,,,112.9458618,-77.789703369,
,,,113.1924744,-86.989700317,
,,,113.4390793,-86.989700317,
,,,113.6856842,-86.989700317,
,,,113.9322891,-81.389701843,
,,,114.1789017,-80.589698792,
,,,114.4255066,-75.389701843,
,,,114.6721115,-64.189697266,
,,,114.9187164,-60.989700317,
,,,115.1653290,-60.989700317,
,,,115.4119339,-62.589698792,
,,,115.6585388,-70.589698792,
,,,115.9051437,-81.389701843,
,,,116.1517487,-78.589698792,
,,,116.3983612,-81.389701843,
,,,116.6449661,-80.589698792,
,,,116.8915710,-84.589698792,
,,,117.1381760,-81.389701843,
,,,117.3847885,-76.189697266,
,,,117.6313934,-76.189697266,
,,,117.8779984,-80.589698792,
,,,118.1246033,-84.589698792,
,,,118.3712158,-80.589698792,
,,,118.6178207,-81.389701843,
,,,118.8644257,-81.389701843,
,,,119.1110306,-77.389701843,
,,,119.3576355,-81.389701843,
,,,119.6042480,-77.789703369,
,,,119.8508530,-81.389701843,
,,,120.0974579,-80.589698792,
,,,120.3440628,-84.589698792,
,,,120.5906754,-84.589698792,
,,,120.8372803,-80.589698792,
,,,121.0838852,-86.989700317,
,,,121.3304901,-80.589698792,
,,,121.5771027,-84.589698792,
,,,121.8237076,-84.589698792,
,,,122.0703125,-86.989700317,
,,,122.3169174,-84.589698792,
,,,122.5635300,-86.989700317,
,,,122.8101349,-86.989700317,
,,,123.0567398,-86.989700317,
,,,123.3033447,-86.989700317,
,,,123.5499496,-86.989700317,
,,,123.7965622,-86.989700317,
,,,124.0431671,-86.989700317,
,,,124.2897720,-86.989700317,
,,,124.5363770,-86.989700317,
,,,124.7829895,-74.589698792,
,,,125.0295944,-70.589698792,
,,,125.2761993,-71.389701843,
,,,125.5228043,-71.389701843,
,,,125.7694168,-81.389701843,
,,,126.0160217,-84.589698792,
,,,126.2626266,-86.989700317,
,,,126.5092316,-86.989700317,
,,,126.7558365,-84.589698792,
,,,127.0024490,-86.989700317,
,,,127.2490540,-86.989700317,
,,,127.4956589,-84.589698792,
,,,127.7422638,-86.989700317,
,,,127.9888763,-86.989700317,
,,,128.2354736,-86.989700317,
,,,128.4820862,-86.989700317,
,,,128.7286987,-86.989700317,
,,,128.9752960,-86.989700317,
,,,129.2219086,-78.589698792,
,,,129.4685211,-78.589698792,
,,,129.7151184,-80.589698792,
,,,129.9617310,-86.989700317,
,,,130.2083282,-84.589698792,
,,,130.4549408,-86.989700317,
,,,130.7015533,-84.589698792,
,,,130.9481506,-86.989700317,
,,,131.1947632,-86.989700317,
,,,131.4413605,-81.389701843,
,,,131.6879730,-81.389701843,
,,,131.9345856,-81.389701843,
,,,132.1811829,-86.989700317,
,,,132.4277954,-80.589698792,
,,,132.6744080,-81.389701843,
,,,132.9210052,-84.589698792,
,,,133.1676178,-86.989700317,
,,,133.4142151,-86.989700317,
,,,133.6608276,-86.989700317,
,,,133.9074402,-86.989700317,
,,,134.1540375,-86.989700317,
,,,134.4006500,-84.589698792,
,,,134.6472473,-84.589698792,
,,,134.8938599,-78.589698792,
,,,135.1404724,-74.989700317,
,,,135.3870697,-78.589698792,
,,,135.6336823,-81.389701843,
,,,135.8802948,-84.589698792,
,,,136.1268921,-86.989700317,
,,,136.3735046,-86.989700317,
,,,136.6201019,-86.989700317,
,,,136.8667145,-80.589698792,
,,,137.1133270,-81.389701843,
,,,137.3599243,-81.389701843,
,,,137.6065369,-84.589698792,
,,,137.8531342,-86.989700317,
,,,138.0997467,-84.589698792,
,,,138.3463593,-86.989700317,
,,,138.5929565,-86.989700317,
,,,138.8395691,-86.989700317,
,,,139.0861816,-86.989700317,
,,,139.3327789,-80.589698792,
,,,139.5793915,-81.389701843,
,,,139.8259888,-84.589698792,
,,,140.0726013,-86.989700317,
,,,140.3192139,-81.389701843,
,,,140.5658112,-77.789703369,
,,,140.8124237,-77.389701843,
,,,141.0590210,-77.789703369,
,,,141.3056335,-86.989700317,
,,,141.5522461,-84.589698792,
,,,141.7988434,-84.589698792,
,,,142.0454559,-81.389701843,
,,,142.2920685,-84.589698792,
,,,142.5386658,-86.989700317,
,,,142.7852783,-86.989700317,
,,,143.0318756,-86.989700317,
,,,143.2784882,-81.389701843,
,,,143.5251007,-81.389701843,
,,,143.7716980,-81.389701843,
,,,144.0183105,-86.989700317,
,,,144.2649078,-86.989700317,
,,,144.5115204,-84.589698792,
,,,144.7581329,-80.589698792,
,,,145.0047302,-77.789703369,
,,,145.2513428,-75.389701843,
,,,145.4979553,-75.389701843,
,,,145.7445526,-77.389701843,
,,,145.9911652,-84.589698792,
,,,146.2377625,-86.989700317,
,,,146.4843750,-86.989700317,
,,,146.7309875,-86.989700317,
,,,146.9775848,-86.989700317,
,,,147.2241974,-86.989700317,
,,,147.4707947,-84.589698792,
,,,147.7174072,-86.989700317,
,,,147.9640198,-80.589698792,
,,,148.2106171,-78.589698792,
,,,148.45722961,-80.589698792,
,,,148.70384216,-86.989700317,
,,,148.95043945,-86.989700317,
,,,149.19705200,-77.789703369,
,,,149.44364929,-77.389701843,
,,,149.69026184,-80.589698792,
,,,149.93687439,-80.589698792,
,,,150.18347168,-86.989700317,
,,,150.43008423,-81.389701843,
,,,150.67669678,-81.389701843,
,,,150.92329407,-77.789703369,
,,,151.16990662,-81.389701843,
,,,151.41650391,-80.589698792,
,,,151.66311646,-86.989700317,
,,,151.90972900,-84.589698792,
,,,152.15632629,-84.589698792,
,,,152.40293884,-84.589698792,
,,,152.64953613,-84.589698792,
,,,152.89614868,-86.989700317,
,,,153.14276123,-86.989700317,
,,,153.38935852,-84.589698792,
,,,153.63597107,-84.589698792,
,,,153.88258362,-86.989700317,
,,,154.12918091,-86.989700317,
,,,154.37579346,-86.989700317,
,,,154.62239075,-84.589698792,
,,,154.86900330,-86.989700317,
,,,155.11561584,-84.589698792,
,,,155.36221313,-84.589698792,
,,,155.60882568,-80.589698792,
,,,155.85542297,-80.589698792,
,,,156.10203552,-86.989700317,
,,,156.34864807,-86.989700317,
,,,156.59524536,-84.589698792,
,,,156.84185791,-84.589698792,
,,,157.08847046,-86.989700317,
,,,157.33506775,-86.989700317,
,,,157.58168030,-86.989700317,
,,,157.82827759,-86.989700317,
,,,158.07489014,-84.589698792,
,,,158.32150269,-84.589698792,
,,,158.56809998,-86.989700317,
,,,158.81471252,-86.989700317,
,,,159.06130981,-81.389701843,
,,,159.30792236,-77.789703369,
,,,159.55453491,-80.589698792,
,,,159.80113220,-86.989700317,
,,,160.04774475,-86.989700317,
,,,160.29435730,-84.589698792,
,,,160.54095459,-86.989700317,
